<svg fill="#ff5a00" id="default" xmlns="http://www.w3.org/2000/svg" viewBox="0 0 500 189.4">
  <g>
    <path d="M308.4,5.8A5.8,5.8,0,1,1,302.6,0a5.8,5.8,0,0,1,5.8,5.8"/>
    <path d="M382.1,128.9a5.8,5.8,0,1,1-5.8-5.8,5.8,5.8,0,0,1,5.8,5.8"/>
    <path d="M405.5,167.8c-5.6,0-8-3.7-8-9.9s2.4-11,8-11,8,3.7,8,11c0.1,6.1-2.4,9.9-8,9.9m0-28.3c-11.2,0-18,8.4-18,18.2,0,11.6,7,17.5,18,17.5s17.9-7.3,17.9-17.5c0.1-11.9-6.4-18.2-17.9-18.2"/>
    <path d="M257.6,167.8c-5.6,0-8-3.7-8-9.9s2.4-11,8-11,8,3.7,8,11c0,6.1-2.4,9.9-8,9.9m0-28.3c-11.2,0-17.9,8.4-17.9,18.2,0,11.6,7.1,17.5,17.9,17.5s18-7.3,18-17.5c-0.1-11.9-6.5-18.2-18-18.2"/>
    <path d="M250.9,106.2c-5.6,0-8-3.7-8-9.9s2.4-11,8-11,8,3.7,8,11c0,6.2-2.4,9.9-8,9.9m0-28.3c-11.2,0-17.9,8.4-17.9,18.2,0,11.6,7.1,17.5,17.9,17.5s17.9-7.3,17.9-17.5c0.1-11.8-6.4-18.2-17.9-18.2"/>
    <path d="M290.9,106.2c-5.6,0-8-3.7-8-9.9s2.4-11,8-11,8,3.7,8,11c0,6.2-2.4,9.9-8,9.9m0-28.3c-11.2,0-17.9,8.4-17.9,18.2,0,11.6,7,17.5,17.9,17.5s17.9-7.3,17.9-17.5c0.1-11.8-6.4-18.2-17.9-18.2"/>
    <path d="M346.5,30.1c0.4-4.6,2.8-7.4,7-7.4s6.9,2.7,6.9,7.4H346.5Zm7.1-13.7c-10.7,0-17.2,7.4-17.2,18,0,9.5,5.5,17.7,18.7,17.7a34,34,0,0,0,11.6-1.8,1.41,1.41,0,0,0,1-1.4V44.8a1.44,1.44,0,0,0-2-1.3,20.08,20.08,0,0,1-8.5,1.5c-6.4,0-10.6-3.3-10.8-8.7h22.3a1.37,1.37,0,0,0,1.4-1.4c0-10.4-5.2-18.5-16.5-18.5"/>
    <path d="M421.5,30.1c0.4-4.6,2.8-7.4,7-7.4s6.9,2.7,6.9,7.4H421.5Zm7.1-13.7c-10.7,0-17.2,7.4-17.2,18,0,9.5,5.5,17.7,18.7,17.7a34,34,0,0,0,11.6-1.8,1.41,1.41,0,0,0,1-1.4V44.8a1.44,1.44,0,0,0-2-1.3,20.08,20.08,0,0,1-8.5,1.5c-6.4,0-10.6-3.3-10.8-8.7h22.3a1.37,1.37,0,0,0,1.4-1.4c0-10.4-5.2-18.5-16.5-18.5"/>
    <path d="M245.1,5.7h-14a1.37,1.37,0,0,0-1.4,1.4v3.8a1.37,1.37,0,0,0,1.4,1.4h2.7V33.8c0,6.6-2,10.9-10,10.9-7.3,0-9.5-4.2-9.5-10.9V12.3H217a1.37,1.37,0,0,0,1.4-1.4V7.1A1.37,1.37,0,0,0,217,5.7H202a1.37,1.37,0,0,0-1.4,1.4v3.8a1.37,1.37,0,0,0,1.4,1.4h2.7V35.4c0,9.8,4.9,16.7,18.5,16.7,12.4,0,19.2-5.2,19.2-18.9V12.3h2.7a1.37,1.37,0,0,0,1.4-1.4V7.1a1.37,1.37,0,0,0-1.4-1.4"/>
    <path d="M288,44.7h-2.7v-15c0-8.2-3.7-13.3-11.8-13.3a12.12,12.12,0,0,0-11.3,6.7h-0.1V18.6a1.37,1.37,0,0,0-1.4-1.4H250.2a1.37,1.37,0,0,0-1.4,1.4v3.8a1.37,1.37,0,0,0,1.4,1.4h3V44.6h-2.7a1.37,1.37,0,0,0-1.4,1.4v3.8a1.37,1.37,0,0,0,1.4,1.4H265a1.37,1.37,0,0,0,1.4-1.4V46a1.37,1.37,0,0,0-1.4-1.4h-2.7V33.3c0-5.2,2.4-9.1,8-9.1,3.5,0,5.9,1.7,5.9,6.4v14h-2.7a1.37,1.37,0,0,0-1.4,1.4v3.8a1.37,1.37,0,0,0,1.4,1.4H288a1.37,1.37,0,0,0,1.4-1.4V46a1.35,1.35,0,0,0-1.4-1.3"/>
    <path d="M310.5,44.7h-3V18.6a1.37,1.37,0,0,0-1.4-1.4H295.4a1.37,1.37,0,0,0-1.4,1.4v3.8a1.37,1.37,0,0,0,1.4,1.4h3V44.6h-3A1.37,1.37,0,0,0,294,46v3.8a1.37,1.37,0,0,0,1.4,1.4h15.2a1.37,1.37,0,0,0,1.4-1.4V46a1.44,1.44,0,0,0-1.5-1.3"/>
    <path d="M333,44.7h-3V2.6a1.37,1.37,0,0,0-1.4-1.4H317.9a1.37,1.37,0,0,0-1.4,1.4V6.4a1.37,1.37,0,0,0,1.4,1.4h3V44.7h-3a1.37,1.37,0,0,0-1.4,1.4v3.8a1.37,1.37,0,0,0,1.4,1.4H333a1.37,1.37,0,0,0,1.4-1.4V46.1a1.31,1.31,0,0,0-1.4-1.4"/>
    <path d="M409.3,17.2H395.8a1.37,1.37,0,0,0-1.4,1.4v3.8a1.37,1.37,0,0,0,1.4,1.4h2.4s-6,16.9-6,17a0.74,0.74,0,0,1-1.4,0l-6.2-16.9h1.8a1.37,1.37,0,0,0,1.4-1.4V18.7a1.37,1.37,0,0,0-1.4-1.4h-14a1.37,1.37,0,0,0-1.4,1.4v3.8a1.37,1.37,0,0,0,1.4,1.4h1.8L385.9,51a0.84,0.84,0,0,0,.7.4h9a1,1,0,0,0,.7-0.4l11.5-27h1.8a1.37,1.37,0,0,0,1.4-1.4V18.8a1.9,1.9,0,0,0-1.7-1.6"/>
    <path d="M221.5,146.8l-5.5-1.4c-3-.7-5.4-1.7-5.4-5,0-2.5,2-5.8,8.4-5.8a16,16,0,0,1,7.2,1.6V140a1.37,1.37,0,0,0,1.4,1.4h4.5a1.37,1.37,0,0,0,1.4-1.4v-8.3a1.42,1.42,0,0,0-.9-1.3h0a40.49,40.49,0,0,0-13.9-2.4c-12.9,0-18,6.4-18,13.6,0,6.4,3.7,10.8,12.6,13.1l5,1.3c6.1,1.6,7.4,3.3,7.4,5.6,0,3.5-2.5,6.1-8.1,6.1a17.13,17.13,0,0,1-8-1.6V162a1.37,1.37,0,0,0-1.4-1.4H203a1.37,1.37,0,0,0-1.4,1.4v9.1a1.34,1.34,0,0,0,.8,1.3,36.45,36.45,0,0,0,14.4,2.8c13,0,18.9-6.3,18.9-15-0.1-9-7.5-11.7-14.2-13.4"/>
    <path d="M335.6,167.8h-2.5V141.7a1.37,1.37,0,0,0-1.4-1.4H321a1.37,1.37,0,0,0-1.4,1.4v3.8a1.37,1.37,0,0,0,1.4,1.4h3v12.3c0,5.4-3.2,8.5-7.1,8.5-5.5,0-6-3.5-6-8.4V141.6a1.37,1.37,0,0,0-1.4-1.4H298.7a1.37,1.37,0,0,0-1.4,1.4v3.8a1.37,1.37,0,0,0,1.4,1.4h3v16.3c0,7.2,3.9,11.9,11.7,11.9,4.9,0,8.5-1.5,10.7-4.6h0.2v2.3a1.37,1.37,0,0,0,1.4,1.4h9.9a1.37,1.37,0,0,0,1.4-1.4v-3.8a1.42,1.42,0,0,0-1.4-1.1"/>
    <path d="M489,153.3c-2-.3-5.2-0.8-7.2-1s-3.1-1.3-3.1-2.9c0-1.9,1.7-3.4,6.1-3.6,2.3-.1,5.5.3,6.9,1.3v2a1.37,1.37,0,0,0,1.4,1.4h3.6a1.37,1.37,0,0,0,1.4-1.4V143a1.42,1.42,0,0,0-.9-1.3,32.78,32.78,0,0,0-12.2-2.3c-7.1,0-15,2.7-15,11.2,0,4.8,3.1,8,8.5,8.9l7.7,1.4c4,0.6,5.2,1.8,5.2,3.6,0,3.6-4.8,4-6.7,4a21.07,21.07,0,0,1-6.8-1.1v-2.6a1.37,1.37,0,0,0-1.4-1.4h-4.1a1.37,1.37,0,0,0-1.4,1.4v7a1.42,1.42,0,0,0,.9,1.3,39.2,39.2,0,0,0,12,2c11.9,0,16.1-5.7,16.1-11.8,0.1-5.6-3.2-8.8-11-10"/>
    <path d="M232.3,67.2H202a1.37,1.37,0,0,0-1.4,1.4v3.8a1.37,1.37,0,0,0,1.4,1.4h3.6v32.4H202a1.37,1.37,0,0,0-1.4,1.4v3.8a1.37,1.37,0,0,0,1.4,1.4h16.7a1.37,1.37,0,0,0,1.4-1.4v-3.8a1.37,1.37,0,0,0-1.4-1.4h-3.6V93.1h10.6a1.37,1.37,0,0,0,1.4-1.4V87.9a1.37,1.37,0,0,0-1.4-1.4H215.1V73.8h11.2v5.4a1.37,1.37,0,0,0,1.4,1.4h4.5a1.37,1.37,0,0,0,1.4-1.4V68.6a1.24,1.24,0,0,0-1.3-1.4"/>
    <path d="M337.6,96.3c0,5.2-3.1,9.5-7.9,9.5-4.4,0-7-4.6-7-9.9S325.2,85,331.8,85a12.39,12.39,0,0,1,5.8,1.6v9.7Zm11.7,9.9h-2.5V64.1a1.37,1.37,0,0,0-1.4-1.4H334a1.37,1.37,0,0,0-1.4,1.4v3.8a1.37,1.37,0,0,0,1.4,1.4h3.6v9.4a22.91,22.91,0,0,0-5.6-.8c-14.5.1-19,10.8-19,20.2,0,10.2,6.4,15.6,13.9,15.6,5,0,8.7-1.8,10.9-5.8h0.1v3.5a1.37,1.37,0,0,0,1.4,1.4h9.9a1.37,1.37,0,0,0,1.4-1.4v-3.8a1.28,1.28,0,0,0-1.3-1.4"/>
    <path d="M361.1,167.8a11.81,11.81,0,0,1-3,.4c-3.8,0-5-1.2-5-6V147h7.7a1.37,1.37,0,0,0,1.4-1.4v-3.8a1.37,1.37,0,0,0-1.4-1.4h-7.7v-6.1a1.37,1.37,0,0,0-1.4-1.4h-6.3a1.37,1.37,0,0,0-1.4,1.4v6.1h-3.6a1.37,1.37,0,0,0-1.4,1.4v3.8a1.37,1.37,0,0,0,1.4,1.4H344v19.1c0,6,3.6,9.1,10.3,9.1a21.32,21.32,0,0,0,7.7-1.5,1.42,1.42,0,0,0,.9-1.3v-3.3a1.51,1.51,0,0,0-1.8-1.3"/>
    <path d="M472,16.4c-0.5,0-1.1-.1-1.6-0.1-4.1,0-7.5.7-9.1,5.2h-0.1V18.6a1.37,1.37,0,0,0-1.4-1.4H449.4a1.37,1.37,0,0,0-1.4,1.4v3.8a1.37,1.37,0,0,0,1.4,1.4h3V44.6h-3A1.37,1.37,0,0,0,448,46v3.8a1.37,1.37,0,0,0,1.4,1.4h15.2a1.37,1.37,0,0,0,1.4-1.4V46a1.37,1.37,0,0,0-1.4-1.4h-3v-11c0-5.6,3.3-8.7,8-9.1a19.22,19.22,0,0,1,2.4,0,1.37,1.37,0,0,0,1.4-1.4V17.8a1.7,1.7,0,0,0-1.4-1.4"/>
    <path d="M384.2,167.8h-3V141.7a1.37,1.37,0,0,0-1.4-1.4H369a1.37,1.37,0,0,0-1.4,1.4v3.8a1.37,1.37,0,0,0,1.4,1.4h3v20.8h-3a1.37,1.37,0,0,0-1.4,1.4v3.8a1.37,1.37,0,0,0,1.4,1.4h15.2a1.37,1.37,0,0,0,1.4-1.4v-3.8a1.35,1.35,0,0,0-1.4-1.3"/>
    <path d="M294.2,167.8h-3V125.7a1.37,1.37,0,0,0-1.4-1.4H279.1a1.37,1.37,0,0,0-1.4,1.4v3.8a1.37,1.37,0,0,0,1.4,1.4h3v36.9h-3a1.37,1.37,0,0,0-1.4,1.4V173a1.37,1.37,0,0,0,1.4,1.4h15.1a1.37,1.37,0,0,0,1.4-1.4v-3.8a1.37,1.37,0,0,0-1.4-1.4"/>
    <path d="M465.5,167.8h-2.7V152.9c0-8.2-3.7-13.3-11.8-13.3a12.12,12.12,0,0,0-11.3,6.7h-0.1v-4.5a1.37,1.37,0,0,0-1.4-1.4H427.7a1.37,1.37,0,0,0-1.4,1.4v3.8a1.37,1.37,0,0,0,1.4,1.4h3v20.8H428a1.37,1.37,0,0,0-1.4,1.4V173a1.37,1.37,0,0,0,1.4,1.4h14.5a1.37,1.37,0,0,0,1.4-1.4v-3.8a1.37,1.37,0,0,0-1.4-1.4h-2.7V156.4c0-5.2,2.4-9.1,8-9.1,3.5,0,5.9,1.7,5.9,6.4v14H451a1.37,1.37,0,0,0-1.4,1.4v3.8a1.37,1.37,0,0,0,1.4,1.4h14.5a1.37,1.37,0,0,0,1.4-1.4v-3.8a1.35,1.35,0,0,0-1.4-1.3"/>
    <path d="M163.1,42.9c-1,0-2.4,0-3.1-1.5-0.6-1.3-.4-3.3-1.6-4.2a10.49,10.49,0,0,0,3.4.4c3.1,0,6.2-2.2,8.4-2.2a1.81,1.81,0,0,1,2,1.9c0,3.1-6.2,5.6-9.1,5.6m1.5,7.9c7.2,0,13.9-5.8,13.9-10.9,0-2.4-1.1-4.3-4-4.7a2.92,2.92,0,0,1,.7,2.2c0,3.8-5.8,8.1-12.2,8.1-2.3,0-3,1.6-3,2.4,0,2,1.9,2.9,4.6,2.9m-0.5,2.9C165,60.3,175,69.2,177.7,69c1.8-.2,2.5-8.7,2.5-15.3,0-3.8.2-6.8-1.8-7.5-3.2,6.4-11.6,7.8-14.3,7.5"/>
    <path d="M7.2,97.5C9.6,97.5,9.1,83,13,83c0.9,0,1.2.9,1.2,2,0,3.3-1.6,8.1-1.6,10.7,0,1.3.4,1.7,1,1.7,1.7,0,4.6-16,7.5-16,0.9,0,1.3.9,1.3,1.8,0,3.4-4.3,13-4.3,15.7,0,0.4.1,0.8,0.5,0.8,1.7,0,5.2-7.5,6.3-11.3,0.6-1.9,1.5-3,2.2-3s1.3,0.8,1.3,2.4c0,3.8-3.5,12.6-6.5,18.5-2.4,4.6-6.1,11.2-6.1,14.9,0,1.9.3,3.8,3.1,6.2-4.5-.3-6.3-0.7-8-4.2-7.4,14.8,13.7,13.4,6.5,26.5-1.3-2.3-11.8-4.8-11.8-18.6,0-11.9,10.4-18.9,10.4-23.8a3.31,3.31,0,0,0-1.3-2.6c-2.3-2-2.4-3.6-4.2-3.6-1.3,0-2.9,3.1-1.2,5.8a5,5,0,0,1,1,2.3c0,1.9-3.1,7.2-5.2,7.2s-3.9-5.4-3.9-14C1.2,94.7,3,87,5.1,87a0.81,0.81,0,0,1,.8,1c0,0.9-.3,2.7-0.3,5.8,0.2,3.4,1,3.7,1.6,3.7"/>
    <path d="M25,117.9c2.9,0,5.3-2.2,5.3-7v-7.1c0-2.7.2-5.8,2-7.9a13.2,13.2,0,0,0-.2,2.8c0,6,3.3,10.1,3.3,15.9,0,2.2-.6,3.4-2.3,3.4s-1.5-1.5-1.8-1.5-0.7.9-.7,1.9a3.75,3.75,0,0,0,4,3.7,4.77,4.77,0,0,0,4.5-4.9c0-6.2-4.9-13.2-4.9-19.9a16,16,0,0,1,1.4-6.4c0,13.9,11.8,23.9,11.8,29.7A2.37,2.37,0,0,1,45,123a2.33,2.33,0,0,1-2.4-2.2c0-.5-0.1-0.6-0.3-0.6-0.4,0-1.7,1.4-1.7,3.2a5.25,5.25,0,0,0,5.4,5.1,6.09,6.09,0,0,0,6.1-6.3c0-7.3-14.3-18.4-14.3-30.2a17.21,17.21,0,0,1,1.8-7.8C30.4,90.1,27.5,98,27.5,104.9c0,6-.2,9-3.2,9-1.6,0-2-1.5-2.6-1.5-0.4,0-.6,1.3-0.6,1.6a4,4,0,0,0,3.9,3.9"/>
    <path d="M130.6,39.5c0.9-.6,4.8.3,9.9-2.2a3.52,3.52,0,0,1,1.8-.5c2.4,0,1.8,2.8,4,2.8,1.7,0,4-1.5,5.3-1.5,2.1,0,5.1,6.6,5.1,9.6,0,3.6-5.4,5.7-11.7,5.7-9.3,0-14.8-8.1-14.8-13.3a0.55,0.55,0,0,1,.4-0.6m15.2,8.8c3,0,5.4-1.4,5.4-2.2,0-.3-0.4-0.5-1.4-0.5a44.81,44.81,0,0,1-6.1-.6c-2.9-.5-5.1-1.6-6-1.6a0.35,0.35,0,0,0-.4.3c0,1.8,3.3,4.6,8.5,4.6"/>
    <path d="M26.5,144.2c-2.3.5-6,4.2-6,9.9,0,6.8,7.3,17.4,19.4,17.4,10.2,0,12.7-7,12.7-11.8,0-10.5-6.5-17.9-14.9-17.9a8.43,8.43,0,0,0-8.7,8.3,11.55,11.55,0,0,0,11.8,11.5,5.88,5.88,0,0,0,6.2-6c0-3.1-2.9-7.4-7-7.4a2,2,0,0,0-2.2,2.1c0,1.7,2.3,3.4,5.1,3.4a3.81,3.81,0,0,0,1.5-.3,1.88,1.88,0,0,1,.2.8c0,1.6-1.5,2.6-3.9,2.6a6.78,6.78,0,0,1-7-6.8c0-2.5,2.1-4.3,5.3-4.3,6.2,0,9.9,5.5,9.9,11,0,4.9-2.7,7.8-8.3,7.8-11.1-.1-16.6-10.1-14.1-20.3"/>
    <path d="M106,185a28.32,28.32,0,0,0,4.2-.3,0.91,0.91,0,0,1,1.1,1.1c0,1.5-3.4,3.4-9.5,3.4-3.6,0-5.7-1.9-6.4-4a27.85,27.85,0,0,1-14,4.2c-14.3,0-17.9-6.2-22.4-8.2-3.4-1.5-8.6,1.5-15.9-6.7a18.41,18.41,0,0,0,3.3.3c6.4,0,9.8-3.1,9.8-8.2,0-.6-0.1-1.3-0.1-1.9a13.93,13.93,0,0,1,7.5,10c0.1,0.7,3,1.3,4.8,1.3,2.5,0,5.7-1.1,6.2-5.2,8.3-.7,14-5.7,15.2-11.9,3,1,6.4,3.7,7.2,5.1a13.3,13.3,0,0,1,4.2-.6,26.34,26.34,0,0,1,7.7,1.3c0.2-.9.3-2,1.7-2,2.1,0,1.5,2.3,2.2,3.6,0.4,0.7,2.1,1.1,2.1,2.5a1.78,1.78,0,0,1-1.8,1.8,2.92,2.92,0,0,1-.9-0.2c-1.4.5-1.4,10.5-7.3,10.5-4.3,0-8.3-3.6-10-8a3,3,0,0,0-2.5-2.2c-1.1,0-1.7.2-3.1,1.7a24.12,24.12,0,0,1-17.8,7.7c-2.4,0-4.3-.2-4.7-0.2s-0.3.1-.3,0.1c0,0.5,2.4,2.4,7.5,2.4,12.3,0,15.3-6.9,17.2-6.9a1.61,1.61,0,0,1,1.6,1.1A14,14,0,0,0,106,185m-5.4-13.9a2.8,2.8,0,1,0,2.8-2.8,2.8,2.8,0,0,0-2.8,2.8"/>
    <path d="M155.8,136.3c-1,0-2,.8-2,2.7a4.32,4.32,0,0,0,2.5,3.8,4.27,4.27,0,0,0,2,.6c2,0,3.7-.6,3.7-2.2-0.1-2.2-3.2-4.9-6.2-4.9m-7.5,4.3c-1.5,0-9.6,10.8-14.8,10.8-1.3,0-2.3-2.4-2.3-4.2,0-1,.7-1.7,2.9-2.2,12-2.7,9.3-11.7,19.5-11.7,5.6,0,11.9,3.8,11.9,12.5,0,9.2-13.1,20.6-15,20.6-1.6,0-3.3-2.3-3.3-3.8,0-.5.2-1.1,1.6-1.7,6.7-2.6,10.5-8.8,10.5-11.9a1.21,1.21,0,0,0-1.2-1.4c-1.2,0-6.3,11.5-11.9,11.5-3.9,0-7.9-3.5-7.9-5.2,0-2.8,11.3-8,11.3-11.9-0.1-1.3-.8-1.4-1.3-1.4"/>
    <path d="M10.4,49.3a8.35,8.35,0,0,1-4.5,1.5A5.26,5.26,0,0,1,.5,45.4a5.79,5.79,0,0,1,3.7-5.5v1.2c-0.1,4,2.1,7,6.2,8.2M25.3,62.7a13.44,13.44,0,0,0-3.1,8c0,3.8,2.3,6.9,5.8,6.9s5-2.9,5-5.9c0-4.7-4.2-8-7.7-9M2.2,65.5a1,1,0,0,0-.2.7,1.49,1.49,0,0,0,1.3,1.3,9.68,9.68,0,0,0,1.2-.2c1.7,0,3.6,1.2,6.3,1.2a13.43,13.43,0,0,0,5.9-1.7c5-2.5,7-8.7,7-9.8,0-1.3-1.1-1.1-1.9-2.4s-0.6-2.3-1.1-2.8a5.71,5.71,0,0,0-2.6-.5,7.08,7.08,0,0,0-1.5-.1,14.59,14.59,0,0,0-8.1,2.2C2.3,57.5,3.2,63.9,2.2,65.5m16.3-8.7c0.5,0.7,1.8,1.5,1.8,1.9,0,1-.6,2.2-1.7,2.2-2.5,0-4.4-3.7-4.4-5.8,0-1.3.8-1.5,1.8-1.5a1.49,1.49,0,0,1,1,.3c0.8,0.5.8,1.9,1.5,2.9m-6.4,8.5c-2.3,0-4.8-2.9-4.8-5.4,0-1.4,1.1-3.2,1.8-3.2,0.3,0,.4.2,0.5,0.7a7.69,7.69,0,0,0,4.7,6.3,0.54,0.54,0,0,1,.4.4c0,0.5-1.3,1.2-2.6,1.2M18,47.8a15.47,15.47,0,0,0,.6-4.1c0-3.3-1.5-8.4-6.3-8.4A4.69,4.69,0,0,0,7.6,40c0.1,5.5,5.6,7.8,10.4,7.8M0,75.6c0,5.3,1.6,7.8,4.5,7.8,2.2,0,5.2-1.6,8.8-4.7a33,33,0,0,1-6.7,1.1c-2.6,0-4.5-1-6.6-4.2m2.4-6.2a3.75,3.75,0,0,0-.1,1.1c0,3.2,1.8,5.1,4,5.1,1.7,0,3.8-1.1,5.6-3.4a21.05,21.05,0,0,1-2.5.2c-2.5,0-5.3-.7-7-3m17.1-.9c-1.6.4-5,2.4-5,5.8a4.13,4.13,0,0,0,4.4,4.1,4.38,4.38,0,0,0,2.7-.7,8.09,8.09,0,0,1-2.7-6.1,10.58,10.58,0,0,1,.6-3.1M22,49.4a2.8,2.8,0,0,0,2.8,2.8,2.73,2.73,0,0,0,2.8-2.8,2.8,2.8,0,1,0-5.6,0m3.6,6.2a2.8,2.8,0,1,0,2.8-2.8,2.93,2.93,0,0,0-2.8,2.8"/>
    <path d="M134.3,89.8a2.65,2.65,0,0,1,5.3,0,2.65,2.65,0,1,1-5.3,0M109.9,68.4a2.8,2.8,0,1,0,2.8-2.8,2.8,2.8,0,0,0-2.8,2.8m-2.4,9.8a4,4,0,1,0,4-4,4,4,0,0,0-4,4m8.8-4.5a4.25,4.25,0,0,0,4.2,4.3,4.25,4.25,0,1,0-4.2-4.3m0.3-9a2.65,2.65,0,1,0,2.6-2.6,2.52,2.52,0,0,0-2.6,2.6M129.3,58a2.67,2.67,0,0,0,2.6,2.7,2.75,2.75,0,0,0,2.7-2.7,2.61,2.61,0,0,0-2.7-2.6,2.52,2.52,0,0,0-2.6,2.6M124,66.6a4.5,4.5,0,0,0,9,0,4.55,4.55,0,0,0-4.5-4.5,4.48,4.48,0,0,0-4.5,4.5m-7.2,16.3a2.8,2.8,0,1,0,5.6,0,2.8,2.8,0,1,0-5.6,0m9.2-5.6a2.8,2.8,0,0,0,2.8,2.8,2.86,2.86,0,0,0,2.8-2.8,2.8,2.8,0,0,0-5.6,0m-2.6,9.8a4.87,4.87,0,0,0,4.8,4.8,4.74,4.74,0,0,0,4.8-4.8,4.8,4.8,0,0,0-4.8-4.8,4.87,4.87,0,0,0-4.8,4.8m10-5.9a3.3,3.3,0,1,0,3.3-3.3,3.33,3.33,0,0,0-3.3,3.3m-0.2-8.8a2.9,2.9,0,1,0,2.9-2.9,3,3,0,0,0-2.9,2.9"/>
    <path d="M140.3,163.8a20.36,20.36,0,0,1-13.1,4.5c-3.8,0-5.4-1.2-6-1.2a3.46,3.46,0,0,0-2.2,1.6,15.66,15.66,0,0,0-3.8,9.6c0,2.8,2.2,5.6,6.2,5.6,13.1,0,22.8-8.2,22.8-14.8-0.1-3.7-2.3-5.3-3.9-5.3m-3.6-.7a2.72,2.72,0,0,0,.7-2v-1.6c0-2-3-3.2-7.2-3.2-5.1,0-7.8,2.3-7.8,3.3v3.2c0,1.3,3.1,2.7,6.9,2.7a12.35,12.35,0,0,0,7.4-2.4m-0.6,6.9c0.4,0,.7.2,0.7,1.5a6,6,0,0,1-3.2,5.1,12.72,12.72,0,0,1-7.6,2.2,15.4,15.4,0,0,0,1-5.1c0-.6-0.1-1-0.1-1.6h0.9a16.21,16.21,0,0,0,8.3-2.1"/>
    <path d="M109.5,84.8c0.8,5.9,8.7,2.9,8.7,10.1,0,1.1-.3,2.6-0.3,3.9,0,1.6.2,2.9,1.3,2.9s1.5-.8,1.5-2-0.3-2.5-.3-3.2c0-2.5,1.7-3,2.8-3,2.7,0,4.7,2.7,8.6,2.7-0.9,4.5-10.1,3.3-10.1,8.1,0,2.5,2.4,3,4,3s1.9-.2,1.9-1.4c0-.7-0.1-1.5-0.1-2a0.47,0.47,0,0,1,.5-0.5c1.5,0,9.1,5.7,9.1,7.4s-7.9,3.2-10.2,3.2a0.72,0.72,0,0,1-.8-0.8c0-.5,1.1-1.9,1.1-2.8,0-.6-1-1-3.8-1-1.3,0-2.3.1-2.3,1.2,0,1.9,3.1,4.2,3.1,5.9,0,1.4-.8,2.2-3.1,2.2-1.9,0-4.7-1.5-4.7-3.9,0-1.9,2-3.9,2-5.1a1,1,0,0,0-1.1-.9c-2.5,0-3.3,6.8-12.4,7.6a6.89,6.89,0,0,0,2.7-5.8c0-1.5-.4-2.7-0.4-4.2,0-2.1,1-3.1,2.4-3.1,2.6,0,3.8,3.6,5.5,3.6a2,2,0,0,0,1.9-2.1c0-5.3-10.2-4.5-10.2-12,0.1-2,.9-4.5,2.7-8m33.3,20.5c0,1.7.6,3.7,2.3,3.7,1.5,0,2.7-2.2,2.7-4.7,0-2.8-.5-4.9-0.5-6.1,0-.5.2-0.7,0.5-0.7,1,0.1,2,2.9,3.1,2.9s3.1-2.3,3.9-2.3a0.43,0.43,0,0,1,.3.3c0,1.1-1.6,3.4-1.6,4.3s4,0.9,4,1.6c0,1-4.2,1-6.3,1.9-1.9.8-3.1,1.9-3.1,3.3s1.4,1.7,3.4,1.7c4.6,0,7.9-2.5,9-2.5a0.27,0.27,0,0,1,.3.3c0,0.7-2.4,3-2.4,4,0,1.2,4.3,2.5,4.3,3.3a0.76,0.76,0,0,1-.8.3c-0.8,0-1.9-.2-2.9-0.2a1.23,1.23,0,0,0-1.2.4c-0.5.6,0.1,4.2-.9,4.2s-3.3-8.2-8.6-8.2c-0.8,0-1.3.6-1.3,1.7,0,2.8,2.7,6,5.3,7.5,1.1,0.8,3.1,1.6,3.1,2,0,0.8-4.4,0-4.4,1.4s0.6,3.2.6,4.2c0,0.4-.1.8-0.5,0.8-0.8,0-2.8-3.8-3.8-3.8-0.8,0-2.6,2.3-3.4,2.3a0.35,0.35,0,0,1-.3-0.4c0-1.6,2.6-5.2,2.6-8.8,0-1.7-.2-5.3-2.2-5.3-1.7,0-3.5,2.7-4.4,5.3-0.5,1.5-.2,7.4-1.3,7.4s-0.7-3.9-2.2-3.9c-1,0-3.3,1.8-4,1.8a0.24,0.24,0,0,1-.3-0.2c0-.8,2-3.5,2-4.1,0-1-4.6-1.2-4.6-2,0-.5,1.8-0.8,3.5-1.1,3.5-.7,8.7-3.2,8.7-6.8,0-4.1-3.9-5.8-6.4-7.5-1.3-.8-2.8-1.5-2.8-2.1s1.7-.6,2.4-0.6c1,0,2.1-.1,2.1-0.9,0-.6-0.2-1.9-0.2-2.9,0-.7.1-1.2,0.4-1.2,1,0,2.5,3.4,3.2,3.4,1.1,0,2.6-2.8,3.7-2.8,0.4,0,.5.2,0.5,0.8-0.2,2.8-1.5,5.7-1.5,8.3"/>
    <path d="M111.6,124.5c3.2,0.4,4,1.5,4,2.4,0,1.6-1.4,2-2.7,2-0.9,0-2.1-.2-3.3-0.2a5.1,5.1,0,0,0-4.3,1.8,2.36,2.36,0,0,1,2.2,2.2c0,4-11.2.7-11.2,11.1,0,5.5,5.7,11.5,14.3,11.5,4.5,0,7.3-1.5,7.3-3.2,0-1.3-2.4-.4-2.4-1.5,0-.5.8-1.4,0.8-2.2a1,1,0,0,0-.8-1c-1.2,0-3.6,2-8.4,2-3.8,0-7.5-2.2-7.5-5.1a0.75,0.75,0,0,1,.7-0.9c0.4,0,1,.3,1.5.3s0.5-.3.5-1.1,0-2.9,1.3-2.9,3.8,4.9,13.5,4.9c3.2,0,9.4-.6,11.7-2.7a18.16,18.16,0,0,1-18.6,17.8c-13,0-20-10.5-20-20.1a20.53,20.53,0,0,1,20.7-20.3c3,0,5.6,1.1,5.6,2.4-0.1,1.8-4.6.7-4.9,2.8m21.3,3.7a4,4,0,0,1,.7,2.2c0,1.9-1.3,3.7-1.3,5.8a4.13,4.13,0,0,0,4.4,4.1,4.85,4.85,0,0,0,4.8-5c0-3.6-3.3-6.7-8.6-7.1m-23,4.5a2.8,2.8,0,0,1,.9,2.1c0,1-.5,2.2-0.5,3.4a3.05,3.05,0,0,0,3.1,3.1,3.2,3.2,0,0,0,3.3-3.3c-0.1-2.7-2.8-5.3-6.8-5.3m9.2-11.9c7.3,1.4,11.3,6.9,11.3,12,0,3.6-2.2,6.8-6.1,6.8-3.5,0-6.1-2.4-6.1-6.3,0-2.9,2.3-6,2.3-9a5.44,5.44,0,0,0-1.4-3.5m3.7,9.3a1.71,1.71,0,0,0,1.7,1.8,1.87,1.87,0,0,0,1.8-2.1c0-1.4-1.3-3.5-2.6-3.5-0.6,0-.4.8-0.5,1.7-0.1.7-.4,1.6-0.4,2.1"/>
    <path d="M45.9,58.4c2.4,0,5.1-12.8,5.1-15,0-.6-0.2-1-0.7-1-2.2,0-5.1,12.2-5.1,14.9-0.1.6,0,1.1,0.7,1.1m17,3.9c1.7,0,3.7-6.7,3.7-10.9,0-.9-0.1-1.9-0.6-1.9-1.4,0-3.9,6.9-3.9,10.7,0,1.4.4,2.1,0.8,2.1M51.6,56.1c0.7,0,1.7-.9,3.5-2.9a24.39,24.39,0,0,0,.1-2.8c0-1.4-.5-2.9-1.4-2.9-2.1,0-3.2,5.6-3.2,7,0.1,0.9.5,1.6,1,1.6m9.5-2.9c0-1.2-.3-1.5-0.5-1.5-0.7,0-1.5.8-2.6,2.7,0.1,2.5.6,3.6,1.2,3.6,0.8,0.1,1.9-2.4,1.9-4.8M66.5,45c4.6,0,6.7,4,6.7,8.4,0,1.9-.6,4.8-1.5,4.8s-0.8-1.6-.9-3.1c-0.1-1.9-.5-2.3-1.1-2.3-1.2,0-2,2.8-2,5.4,0,1.6.3,3.4,1.6,3.4a2.14,2.14,0,0,0,1.7-.8c-0.3,3.2-2.7,6-6,6-6.1,0-8.4-7.2-9.1-11.4-3.7,3.9-7.1,6.8-13.2,6.8A7.88,7.88,0,0,1,34.4,54c0-1.2.4-4.2,1.9-4.2,1.7,0,.2,5.7,3.6,5.7,0.8,0,2.4-.7,3.2-3a12.91,12.91,0,0,0,.8-4.1c0-1.9-.4-3.1-1.8-3.1a5.6,5.6,0,0,0-3.2,1.4,10.54,10.54,0,0,1,10.2-7.6c5.5,0,8.4,4.9,8.4,10.3a21.16,21.16,0,0,1-.2,2.4C59.6,48,62.9,45,66.5,45"/>
    <path d="M53.4,63.7c-3,0-3.1,3.6-3.1,10.9-2.2-4.8-5.9-10-10.3-10-2.9,0-4,2-4,5.4a19.42,19.42,0,0,0,.2,2.4c0.3-1.2,1.4-1.7,2.8-1.7,3,0,6.6,2.3,9,5.4a44.15,44.15,0,0,0-7.6-1,8.47,8.47,0,0,0-3.7.6c-2,.9-4.7,3.9-4.7,8.4a19.52,19.52,0,0,0,.2,2.3c2.4-5.4,8.9-7.9,13.1-7.9,0.8,0,1.5.1,1.9,0.1-2.1,1.9-2.6,5.4-2.8,7.7-0.1,1.1-.5,1.2-1.2,1.2,0,2.3,1.8,5.7,1.8,7.4a1.51,1.51,0,0,1-.7,1.3c0,3.1,3.1,5.3,3.1,7.2a1.6,1.6,0,0,1-.4,1.1c0.2,1.2,3.6,3.4,4,4.4,0.5,1.3,1.2,1.5,1.5,1.5,1.2,0,3.1-1.4,3.1-2.7a2,2,0,0,0-.6-1.1c-1.4-1-2-3.1-2.6-4.4a1.4,1.4,0,0,1-1.4-1.1c-0.4-1.4-.4-4.1-0.9-5.7-0.9-.2-1.3-0.5-1.3-2.4,0-.9.5-4.5,0.5-5.7a1,1,0,0,1-1-1.1c0-2.3,2.2-4,2.9-6.8,4,2.9,4.9,5.9,4.9,8.6a16,16,0,0,1-.5,3.9c2.9-1.4,7.3-3.6,7.3-8,0-2.6-1.2-5.5-9.1-6.6a25.09,25.09,0,0,1,8.1-1.4c4.5,0,7,1.4,7.6,4.5a8.78,8.78,0,0,0,1.6-4.5c0-3.4-2.9-5.6-6.5-5.6-4.3,0-8,2.2-12.1,4.9,1.8-3.7,3.1-6,5.3-6,0.4,0,.7.1,1.1,0.1-0.7-2.6-3.8-5.6-5.5-5.6"/>
    <path d="M170.8,114c3.5,0,6.3,4.5,6.3,9.8a21.85,21.85,0,0,1-7.4,15.9c-0.1-9.4-11.6-6.4-11.6-13.2a4.66,4.66,0,0,1,4.6-4.9,6.8,6.8,0,0,1,5.2,1.9A6.13,6.13,0,0,1,166,119c0.1-2.6,1.8-5,4.8-5"/>
    <path d="M108.6,47.8c1.8,1.7,3.4,2.5,5.4,2.5,0.8,0,1.7-.2,2.2-0.2a1,1,0,0,1,1.1.7,4.37,4.37,0,0,1-1.5,2.7,5.92,5.92,0,0,0,2.7.5c4,0,8.5-2.5,8.5-8.8a9.61,9.61,0,0,1,1.3,4.4c0,7.6-5.6,10.5-10.7,10.5a15.91,15.91,0,0,1-5.5-1.1c-1.3,0-1.2,2.7-2.1,2.6-1.6-.3-3.1-3.8-3.1-7.6a10.39,10.39,0,0,1,1.7-6.2m10.5-5.1c-0.5-.9-2.6-1.4-3.6-1.4a5.86,5.86,0,0,0-5.6,4.1,6,6,0,0,1-.5-2.4,6.78,6.78,0,0,1,7.2-6.9c4.4,0,6.2,2.4,6.8,2.4s1.4-.7,2-0.7c0.8,0,.8,1.2.8,2,0,2.8-1.3,7.6-4.4,9.3a7.67,7.67,0,0,0-3.5-3.4,1,1,0,0,1-.7-1,2.68,2.68,0,0,1,1.5-2"/>
    <path d="M60.2,27.5c0,2.4,8.7,14.4,10.4,14.4,1.4,0,2.4-2.4,2.4-4.5a3.71,3.71,0,0,0-.4-1.5c-1.3-1.7-10.1-8.7-12.1-8.7-0.1-.1-0.3.1-0.3,0.3M9,20.3c0,1.4-5.3,6.1-7.2,6.1-0.7,0-.9-0.8-0.9-1.6a6.23,6.23,0,0,1,1.4-4,8.07,8.07,0,0,1,4.6-1.3c1,0,2.1.3,2.1,0.8m63.6,4c0-4.2-11.3-11.8-11.4-15a1.22,1.22,0,0,1,.4-0.9c1.9-2,10-3.5,10-5.3,0-.9-1.7-0.9-2.5-0.9-6.4,0-15.9,2.4-15.9,4.7s8.5,8.1,8.5,11A1,1,0,0,1,60.5,19c-2.4,0-7.5-2.9-10-2.9-1.1,0-1.5.7-1.5,1.9,0,3.3,4,9.7,4,11.6a0.46,0.46,0,0,1-.3.5c-1.3,0-7.2-7-9.3-7-0.8,0-.9,1-0.9,2.6V28c0,1.6-.1,2.6-0.8,2.6-1.8,0-2.7-5.1-4.4-5.1s-2.2,9-3.9,9c-2,0-.3-10-2.2-10-2.1,0-4.6,6.6-6.1,6.6a0.82,0.82,0,0,1-.7-1c0-2,1.2-5.3,1.2-7.2,0-1-.3-1.5-1.1-1.5-2.2,0-6.9,3.5-8.7,3.5a0.6,0.6,0,0,1-.7-0.4c0-1.7,7.6-7,7.6-9.4s-10.5-.8-10.5-3.4c0-2.2,7.5-4.6,7.5-6.8,0-2-8.9-2.9-12.3-2.9C3.2,2,.9,2.5.9,3.7c0,1.8,9.3,2.4,9.3,3.9s-9.7,5.7-9.7,8c0,2.1,13.7.1,13.7,2.3,0,2.4-11.9,12.6-11.9,16A1.07,1.07,0,0,0,3.6,35c3.6,0,13-6.9,15.6-6.9,0.9,0,1,1.1,1,2.1,0,1.8-.6,4.6-0.6,6.6,0,1.6.4,2.7,1.8,2.7,2.6,0,5-4.4,6.7-4.4,2.2,0,.9,12.9,4.3,12.9,2.9,0,4-14,5.9-14s3.3,4.1,4.9,4.1c2.1,0,1.1-7,3.4-7s9.4,8.3,12.5,8.3c1,0,1.3-.8,1.3-1.7,0-3.7-5.2-12.1-5.2-14.7,0-.7.2-0.9,1-0.9,2.7,0,10.7,3.8,14.4,3.8a1.66,1.66,0,0,0,2-1.6M65.3,10.6c0,1.2,4.4,4,6.4,4,1.2,0,1.5-1.6,1.5-3.3,0-2.1-.9-2.2-2.7-2.2-2.2,0-5.2.6-5.2,1.5M49,3.4c0-.4-2.1-0.8-5-0.8-4.5,0-3.9,3.8-7.4,3.8s-2.8-3.9-7.3-3.9C26.5,2.5,24,3,24,3.6c0,0.8,3.3.5,3.3,2.8s-7,3.1-7,4.6c0,0.5.5,0.7,1.2,0.7,1.6,0,4-.7,5.7-0.7,1,0,1.9.2,1.9,1.1,0,1.7-3.8,4.9-3.8,6.3,0,0.4.3,0.5,0.7,0.5,1.4,0,3.8-3.5,6-3.5,3.7,0,1.3,7.9,3.3,7.9s1.2-7.7,4.2-7.7c2.5,0,4.2,5.4,5.9,5.4a0.88,0.88,0,0,0,.8-0.9c0-1.4-2.1-4.4-2.1-6.4,0-1.2.8-1.7,2-1.7,1.6,0,3.8,1,4.9,1a0.64,0.64,0,0,0,.8-0.6c0-1.7-6.2-3.5-6.2-5.6,0-2.4,3.4-2.4,3.4-3.4"/>
    <path d="M172.5,14.7c0,6.2-4.5,10.9-12.7,12.3a23.48,23.48,0,0,0,2.6.1c9.5,0,13.1-4.3,13.1-7.9a4.62,4.62,0,0,0-3-4.5m-11.8,7.1c0-4.9-11.9-6.2-11.9-7.3,0-.9,6.6-2.4,10-2.5-5.2-6.7-12.7-6-12.7-7.2,0-.7,5.6-2.1,10.8-2.1,4.3,0,8.4,1,8.4,4.3,0,1.8-1.5,3.7-1.5,6.5a2.57,2.57,0,0,0,2.8,2.8c2.2,0,2.6-2.3,2.6-4.7,0-2-.3-3.6-0.3-4.6a4.59,4.59,0,0,1,4.9-4.8c2.4,0,2.9,1,6.4,1a5.23,5.23,0,0,0-2.6,4.1c0,2.9,1.9,5,1.9,10.9,0,11-10.3,14.9-22.9,14.9a66.5,66.5,0,0,1-10.8-.9c-0.6-.1-0.7-0.2-0.7-0.6,0-.9,4.9-1.4,4.9-5.8a34.57,34.57,0,0,0-.6-4.1,0.56,0.56,0,0,1,.6-0.5c1.1,0,3.1,4,7.1,4a3.1,3.1,0,0,0,3.6-3.4M172.1,6.4a1.69,1.69,0,0,0,1.7,1.7,1.75,1.75,0,0,0,1.7-1.7,1.7,1.7,0,1,0-3.4,0"/>
    <path d="M165.9,70.8c0-1.5-3.7-1.6-4-5.7-0.1-.7-0.3-1.8-1.1-1.8-1.2,0-.3,3.8-1.7,3.8-3.2,0-4.2-6.3-5.4-6.3-0.3,0-.6.2-0.6,1.1s0.1,1.3.1,2.1-0.2,1.6-1,1.6c-1.9,0-3.5-4.4-5.1-4.4a0.6,0.6,0,0,0-.7.5c0,0.8,1.4,2.4,1.4,3.1,0,1.7-4.5.8-4.5,2.1,0,0.6.6,0.9,1.5,0.9,1.5,0,3.8-.6,4.9-0.6,0.7,0,1.8.1,1.8,1.1s-2.5,2.2-2.5,3.1a0.7,0.7,0,0,0,.8.6c1.9,0,5.2-3.3,7.6-3.3,0.4,0,1.5.2,1.5,0.8,0,0.9-2.4,2.5-2.4,3.8a0.7,0.7,0,0,0,.6.8c1.3,0,2.9-3.3,5.3-3.3,0.9,0,2.2.3,2.9,0.3a0.37,0.37,0,0,0,.6-0.3m1.8,33.8a45.81,45.81,0,0,1,4.8-9.7c-2.3-1.2-8.3-3.7-8.3-7.8,0-4.8,6-8.6,7.2-8.6,0.6,0,.7.5,0.7,1.4,0,2.5-1.2,6.5-1.2,8.7,0,1.9,1.2,3.8,2.4,3.8s4.5-4.2,4.5-8.3a9.37,9.37,0,0,0-8.5-9.6c-1.9,0-5.3,3-13.3,3-15,0-18.4-14.8-18.4-21.3,0-.3.1-0.3,0.1-0.3,0.3,0,1.8,1.8,6.6,1.8,2.4,0,4.7-.6,8.2-0.6,8.3,0,12,5.8,17.2,13.2,3.1,1.9,10.6,5.1,10.6,13.9,0,7.8-8.3,12.1-10.3,20.5,3.2-.4,5.1-6,8.3-6,1.6,0,2.5,1.3,2.5,3.4a15.35,15.35,0,0,1-5.1,10.5,3.42,3.42,0,0,0,.1-1.1c0-1.9-.7-4.7-3-4.7-3.5,0-4.6,3.7-6.5,6.9-2-7.1-4.7-13.5-9.6-17.4s-13.5-1.8-13.5-9.1c0-2,1.3-4.8,1.3-7a2.81,2.81,0,0,0-.6-2c6.7,2.5,4.3,7,8.5,11.6,2.5,2.9,9.7,5.7,13.8,17.7a8.44,8.44,0,0,0,.2-1.9c0-10.3-13.7-20.4-14.8-24.6,7.9,0.9,9.3,2.9,13.1,13.3,0.5,2.2,3,7.6,3,10.3"/>
    <path d="M129.6,30.8c-4.9,0-8.1-2.5-8.1-3.7a0.94,0.94,0,0,1,1-1c1.5,0,4.9,2.4,6,2.4,0.3,0,.5-0.1.5-0.6,0-1.2-1.2-3.4-1.2-4.4,0-.3.2-0.5,0.7-0.5,1.9,0,4.7.8,6.1,0.8a0.53,0.53,0,0,0,.6-0.6c0-1.5-4.5-4.5-4.5-5.4s5.7-2.1,5.7-3.4-7.7-.4-7.7-1.7c0-1,1.5-2.7,1.5-3.4,0-.3-0.3-0.5-0.8-0.5s-4,1.3-5.4,1.3c-0.7,0-1.5-.1-1.5-1.1,0-1.6,2.7-3.4,7-3.4,6.9,0,11,4.7,11,12.7-0.1,10-7.2,12.5-10.9,12.5M116,17.6c0-.8-2.7-2.2-2.7-3,0-.2.1-0.2,0.4-0.2,0.8,0,2.1.3,3.1,0.3s1-3.9,1.7-3.9c0.5,0,1.4,3.7,2.1,3.7,0.9,0,2.6-1,3.3-1a0.34,0.34,0,0,1,.3.2c0,0.5-1.7,2.4-1.7,2.9s3.9,1.4,3.9,1.9c0,0.7-4,.7-4,1.3s1.5,2.4,1.5,3.1a0.16,0.16,0,0,1-.2.2c-0.5,0-2.7-1-3.3-1-0.8,0-2,2.9-2.6,2.9a0.52,0.52,0,0,1-.3-0.6l-0.2-2.8a0.43,0.43,0,0,0-.5-0.5c-0.9,0-2.4-.1-2.9-0.1s-0.5-.1-0.5-0.2c-0.2-.8,2.6-2.7,2.6-3.2M114,29c1.1,0,1.4,2.7,1.5,4.3,0.2,0.8.3,0.9,0.6,0.9,0.8,0,2.2-3.2,3.1-3.2,1.3,0,4.9,3.7,10.8,3.7,8.4,0,16.4-5.9,16.4-16.4,0-10.1-7.1-16-16.9-16-4.7,0-8.1,2.3-9.9,2.3-1.1.1-2.8-2.7-3.6-2.7-0.3,0-.7.7-0.7,1.9,0,0.7,0,3.2-.8,3.2-1.7,0-8.2-4.8-8.2-3.1s4.3,6.5,4.3,7.7-4.2,2.5-4.2,3.3c0,1.5,4.5,1.8,4.5,3.8s-4.7,3.5-4.7,4.9c0,1.2,4.7.3,4.7,1.8s-3.5,6.4-3.5,7.7c0,0.3.1,0.3,0.4,0.3C109,33.5,113,29,114,29"/>
    <path d="M82.4,151.4a3.46,3.46,0,0,1-.7,2,5.15,5.15,0,0,0-3.9-2.1c-7.2,0-4.4,10.4-12.1,10.4-3.2,0-3.5-.5-4.7-0.5a0.57,0.57,0,0,0-.7.6c0,1.8,2.6,6.3,9.7,6.3s14.1-4.4,14.1-9.9a7.06,7.06,0,0,0-.6-2.8,2.18,2.18,0,0,1,1.6-.7c1.1,0,1.7,1.3,2.8,1.3a2,2,0,0,0,2-2,2.3,2.3,0,0,0-1.3-2,2.56,2.56,0,0,0,1-1.9,2.18,2.18,0,0,0-2.2-2.3,1.8,1.8,0,0,0-1.5.7,2.27,2.27,0,0,0-2.2-2.4,1.76,1.76,0,0,0-1.8,1.9c-0.2,1.3.5,2.2,0.5,3.4"/>
    <path d="M44.2,138.4c5.6,1.4,8.3,4.4,8.9,7.9s1.3,6.2,2.6,7.6a12.31,12.31,0,0,0,8.2,3.7c2.5,0,4.5-.8,4.5-3.1,0-2.5-3.4-8.1-8.4-8.1-0.5,0-1.1.1-1.8,0.1a3.39,3.39,0,0,1-2.1-.6c-1.1-1-1.5-6.2-3.6-9.3-2.3-3.5-4.8-4.5-8.2-4.5-2.4,0-5.1,1.3-5.1,3.3,0,1.1.6,1.9,5,3M63.7,154c-2.1,0-5.2-2.2-5.2-3.5a1.65,1.65,0,0,1,1.7-1.6c1.7,0,4.9,2.2,4.9,3.9a1.22,1.22,0,0,1-1.4,1.2"/>
    <path d="M57.3,99.7c0-4.4,10.6-6.8,10.6-12.3a9.8,9.8,0,0,0-1-3.7c3.7,2,6.4,5.4,6.4,8.2,0,4.8-5,7-5,10,0,3.5,5.4,4,5.4,8.4,0,3.6-5.1,7.7-5.1,12.3a7,7,0,0,0,6.4,7,15.58,15.58,0,0,1-3.6.5c-7,0-14.3-5.8-14.3-12.7a12.17,12.17,0,0,1,3.7-8.6c1.9,1.7,3.9,2.8,5.1,2.8a1.33,1.33,0,0,0,1.6-1.4c0-2.6-10.2-4.9-10.2-10.5m22.2,35.2c-2.4,1.1-3.4.9-3.4,3.3,0,0.9-.2,2.1-0.2,2.7,0,0.8.2,1.3,1.1,1.3,2.5,0,6.5-4.2,6.5-7.9a1.22,1.22,0,0,0-1.2-1.4c-0.5.2-1.1,1.3-2.8,2m-0.3-5c0-3.1-6.4-3.2-6.4-7.9a10.43,10.43,0,0,1,2.3-5.4c0.6,3.6,2.1,5.5,5.2,6.7,6.2,2.3,7,5.7,7,9.4,0,6.3-4.4,14.1-15.7,14.1-9,0-15.5-8.1-15.5-14.9,0-1.9.5-4,1.6-4s1.4,0.8,2.2,1.7c3.1,3.2,6.6,4,11.5,4,4.5,0,7.8-1.8,7.8-3.7"/>
    <path d="M29.9,131.4a2.55,2.55,0,0,1-2.3,2.9,2.6,2.6,0,0,1-2.9-2.3,2.55,2.55,0,0,1,2.3-2.9,2.59,2.59,0,0,1,2.9,2.3m-13,2.8a4.5,4.5,0,0,0,5,3.9,5.2,5.2,0,0,0,2.3-.7,4.32,4.32,0,0,0,5,3.3,4.49,4.49,0,0,0,4.1-4.9,6.22,6.22,0,0,0-.4-1.6,1.76,1.76,0,0,0,.6-0.1,4.67,4.67,0,0,0,4-4.9,4.55,4.55,0,0,0-4.9-4.1,4.4,4.4,0,0,0-2.3,1,4.75,4.75,0,0,0-5.3-3.5,4.6,4.6,0,0,0-3.8,5.1,10.26,10.26,0,0,0,.4,1.4,2.64,2.64,0,0,0-.7.1,4.47,4.47,0,0,0-4,5"/>
  </g>
</svg>
