{
  "asset-bigc-wc2018-mobile/media/DB-Helvethaica-X-Bd-It.ttf": "asset-bigc-wc2018-mobile/media/DB-Helvethaica-X-Bd-It.86e942dd.ttf",
  "asset-bigc-wc2018-mobile/media/DB-Helvethaica-X-Bd-v3.2.ttf": "asset-bigc-wc2018-mobile/media/DB-Helvethaica-X-Bd-v3.2.0134ad13.ttf",
  "asset-bigc-wc2018-mobile/media/DB-Helvethaica-X-Bd.ttf": "asset-bigc-wc2018-mobile/media/DB-Helvethaica-X-Bd.3cf67657.ttf",
  "asset-bigc-wc2018-mobile/media/DB-Helvethaica-X-Med.ttf": "asset-bigc-wc2018-mobile/media/DB-Helvethaica-X-Med.cc832bf0.ttf",
  "asset-bigc-wc2018-mobile/media/SonderSans-Black.ttf": "asset-bigc-wc2018-mobile/media/SonderSans-Black.00fe2278.ttf",
  "asset-bigc-wc2018-mobile/media/bg-popup-p1.png": "asset-bigc-wc2018-mobile/media/bg-popup-p1.b0614e9c.png",
  "asset-bigc-wc2018-mobile/media/bg.png": "asset-bigc-wc2018-mobile/media/bg.3825bd7a.png",
  "asset-bigc-wc2018-mobile/media/boxnumber.png": "asset-bigc-wc2018-mobile/media/boxnumber.ec51c8ea.png",
  "asset-bigc-wc2018-mobile/media/boxprofile.png": "asset-bigc-wc2018-mobile/media/boxprofile.25069e6a.png",
  "asset-bigc-wc2018-mobile/media/glyphicons-halflings-regular.eot": "asset-bigc-wc2018-mobile/media/glyphicons-halflings-regular.f4769f9b.eot",
  "asset-bigc-wc2018-mobile/media/glyphicons-halflings-regular.svg": "asset-bigc-wc2018-mobile/media/glyphicons-halflings-regular.89889688.svg",
  "asset-bigc-wc2018-mobile/media/glyphicons-halflings-regular.ttf": "asset-bigc-wc2018-mobile/media/glyphicons-halflings-regular.e18bbf61.ttf",
  "asset-bigc-wc2018-mobile/media/glyphicons-halflings-regular.woff": "asset-bigc-wc2018-mobile/media/glyphicons-halflings-regular.fa277232.woff",
  "asset-bigc-wc2018-mobile/media/glyphicons-halflings-regular.woff2": "asset-bigc-wc2018-mobile/media/glyphicons-halflings-regular.448c34a5.woff2",
  "main.css": "asset-bigc-wc2018-mobile/css/main.a4903094.css",
  "main.css.map": "asset-bigc-wc2018-mobile/css/main.a4903094.css.map",
  "main.js": "asset-bigc-wc2018-mobile/js/main.abe0d081.js",
  "main.js.map": "asset-bigc-wc2018-mobile/js/main.abe0d081.js.map"
}