12-12-2017 12:00:41 TAXCERT|4dpjrwXUOtYKT0G6QwqSrA8Opx5odpdq1bpiqa0ss9w=|ragnarokmaster03@gmail.com|SUCCESS
12-12-2017 12:01:19 TAXCERT|4dpjrwXUOtYKT0G6QwqSrA8Opx5odpdq1bpiqa0ss9w=|ragnarokmaster03@gmail.com|SUCCESS
12-12-2017 12:05:51 TAXCERT|4dpjrwXUOtYKT0G6QwqSrA8Opx5odpdq1bpiqa0ss9w=|ragnarokmaster03@gmail.com|SUCCESS
12-12-2017 12:06:03 TAXCERT|4dpjrwXUOtYKT0G6QwqSrA8Opx5odpdq1bpiqa0ss9w=|ragnarokmaster03@gmail.com|SUCCESS
12-12-2017 12:06:35 TAXCERT|4dpjrwXUOtYKT0G6QwqSrA8Opx5odpdq1bpiqa0ss9w=|ragnarokmaster03@gmail.com|SUCCESS
12-12-2017 12:07:01 TAXCERT|4dpjrwXUOtYKT0G6QwqSrA8Opx5odpdq1bpiqa0ss9w=|ragnarokmaster03@gmail.com|SUCCESS
12-12-2017 12:08:21 TAXCERT|4dpjrwXUOtYKT0G6QwqSrA8Opx5odpdq1bpiqa0ss9w=|ragnarokmaster03@gmail.com|SUCCESS
12-12-2017 12:08:28 TAXCERT|4dpjrwXUOtYKT0G6QwqSrA8Opx5odpdq1bpiqa0ss9w=|ragnarokmaster03@gmail.com|SUCCESS
12-12-2017 12:09:13 TAXCERT|4dpjrwXUOtYKT0G6QwqSrA8Opx5odpdq1bpiqa0ss9w=|ragnarokmaster03@gmail.com|SUCCESS
12-12-2017 12:10:11 OTP|08915504xx|314845|RBHMJO
12-12-2017 12:10:13 OTP|08915504xx|124841|PFVSBH
12-12-2017 12:10:19 TAXCERT|4dpjrwXUOtYKT0G6QwqSrA8Opx5odpdq1bpiqa0ss9w=|ragnarokmaster03@gmail.com|SUCCESS
12-12-2017 12:10:28 TAXCERT|4dpjrwXUOtYKT0G6QwqSrA8Opx5odpdq1bpiqa0ss9w=|ragnarokmaster03@gmail.com|SUCCESS
12-12-2017 12:11:13 TAXCERT|4dpjrwXUOtYKT0G6QwqSrA8Opx5odpdq1bpiqa0ss9w=|ragnarokmaster03@gmail.com|SUCCESS
12-12-2017 12:11:44 TAXCERT|4dpjrwXUOtYKT0G6QwqSrA8Opx5odpdq1bpiqa0ss9w=|ragnarokmaster03@gmail.com|SUCCESS
12-12-2017 12:11:52 TAXCERT|4dpjrwXUOtYKT0G6QwqSrA8Opx5odpdq1bpiqa0ss9w=|ragnarokmaster03@gmail.com|SUCCESS
12-12-2017 12:12:26 TAXCERT|4dpjrwXUOtYKT0G6QwqSrA8Opx5odpdq1bpiqa0ss9w=|ragnarokmaster03@gmail.com|SUCCESS
12-12-2017 04:17:29 OTP|08915504xx|115970|CMBIPE
12-12-2017 04:18:23 REGISTER|4dpjrwXUOtYKT0G6QwqSrA8Opx5odpdq1bpiqa0ss9w=|20061990xx|153990039900274168|ragnarokmaster03@gmail.com|SUCCESS
12-12-2017 04:20:54 REGISTER|4dpjrwXUOtYKT0G6QwqSrA8Opx5odpdq1bpiqa0ss9w=|20061990xx|153990039900247168|ragnarokmaster03@gmail.com|SUCCESS
12-12-2017 04:21:39 REGISTER|4dpjrwXUOtYKT0G6QwqSrA8Opx5odpdq1bpiqa0ss9w=|20061990xx|153990039900274168|ragnarokmaster03@gmail.com|SUCCESS
12-12-2017 04:22:33 REGISTER|4dpjrwXUOtYKT0G6QwqSrA8Opx5odpdq1bpiqa0ss9w=|20061990xx|153990039900274168|ragnarokmaster03@gmail.com|SUCCESS
12-12-2017 04:25:39 OTP|08915504xx|007531|VQJEKQ
12-12-2017 04:26:13 REGISTER|4dpjrwXUOtYKT0G6QwqSrA8Opx5odpdq1bpiqa0ss9w=|20061990xx|153990039900274168|ragnarokmaster03@gmail.com|SUCCESS
12-12-2017 04:29:36 REGISTER|4dpjrwXUOtYKT0G6QwqSrA8Opx5odpdq1bpiqa0ss9w=|20061990xx|153990039900274168|ragnarokmaster03@gmail.com|SUCCESS
12-12-2017 04:30:02 REGISTER|4dpjrwXUOtYKT0G6QwqSrA8Opx5odpdq1bpiqa0ss9w=|12312312xx|123123231232131232|ragnarokmaster03@gmail.com|SUCCESS
12-12-2017 04:30:03 OTP|08915504xx|243682|FWJDNN
12-12-2017 04:30:24 OTP|08915504xx|322477|SGLXRC
12-12-2017 04:30:41 REGISTER|4dpjrwXUOtYKT0G6QwqSrA8Opx5odpdq1bpiqa0ss9w=|12312321xx|123123131231232133|ragnarokmaster03@gmail.com|SUCCESS
12-12-2017 04:30:43 OTP|08915504xx|273188|ZUAOQD
12-12-2017 04:31:17 OTP|08915504xx|316140|UUAYRK
