06-01-2018 11:13:26 OTP|08915504xx|908236|FWWJWC
06-01-2018 11:13:48 TAXCERT|4dpjrwXUOtYKT0G6QwqSrA8Opx5odpdq1bpiqa0ss9w=|swodsman.smo@gmail.com|FAIL:NO TAX-CER IN CURRENT YEAR
06-01-2018 11:14:08 TAXCERT|4dpjrwXUOtYKT0G6QwqSrA8Opx5odpdq1bpiqa0ss9w=|swodsman.smo@gmail.com|FAIL:NO TAX-CER IN CURRENT YEAR
06-01-2018 11:14:15 TAXCERT|4dpjrwXUOtYKT0G6QwqSrA8Opx5odpdq1bpiqa0ss9w=|swodsman.smo@gmail.com|FAIL:NO TAX-CER IN CURRENT YEAR
06-01-2018 11:14:36 MYPOLICY|ทดสอบ|4dpjrwXUOtYKT0G6QwqSrA8Opx5odpdq1bpiqa0ss9w=|U0a6eb3ec8ce36a962b94b0eb8effb320|SUCCESS
06-01-2018 11:14:45 MYPOLICY|ทดสอบ|4dpjrwXUOtYKT0G6QwqSrA8Opx5odpdq1bpiqa0ss9w=|U0a6eb3ec8ce36a962b94b0eb8effb320|SUCCESS
06-01-2018 11:22:13 REGISTER|4dpjrwXUOtYKT0G6QwqSrA8Opx5odpdq1bpiqa0ss9w=|11111111111xx|11111111|swodsman.smo@gmail.com|SUCCESS
06-01-2018 11:22:14 OTP|08915504xx|711382|COLUVW
06-01-2018 11:22:23 MYPOLICY|ทดสอบ|4dpjrwXUOtYKT0G6QwqSrA8Opx5odpdq1bpiqa0ss9w=|U0a6eb3ec8ce36a962b94b0eb8effb320|SUCCESS
06-01-2018 01:29:38 OTP|08915504xx|040489|WYATZS
06-01-2018 01:39:51 OTP|08915504xx|238608|DBLGAF
06-01-2018 01:40:36 OTP|08915504xx|019198|PSUKBB
06-01-2018 01:52:32 OTP|08915504xx|998799|XBAMSR
06-01-2018 02:05:23 OTP|08915504xx|561840|KZBJDN
