07-02-2018 07:49:59 OTP|08915504xx|544132|ZMVBWR
07-02-2018 07:50:20 MYPOLICY|ทดสอบ|4dpjrwXUOtYKT0G6QwqSrA8Opx5odpdq1bpiqa0ss9w=|U8c71169f57bfb5c8d484f87ae16c75e4|SUCCESS
07-02-2018 07:52:54 MYPOLICY|ทดสอบ|4dpjrwXUOtYKT0G6QwqSrA8Opx5odpdq1bpiqa0ss9w=|U8c71169f57bfb5c8d484f87ae16c75e4|SUCCESS
07-02-2018 07:53:18 OTP|08915504xx|008412|INWHCV
