07-03-2018 12:40:32 OTP|08915504xx|794164|COFOSH
07-03-2018 12:49:58 OTP|08915504xx|040755|VKZSJJ
07-03-2018 12:50:03 OTP|08915504xx|663674|GTGLEX
07-03-2018 12:55:37 OTP|08915504xx|963376|IVSHKB
07-03-2018 12:56:07 MYPOLICY|ทดสอบ|4dpjrwXUOtYKT0G6QwqSrA8Opx5odpdq1bpiqa0ss9w=|U0a6eb3ec8ce36a962b94b0eb8effb320|SUCCESS
07-03-2018 12:56:43 MYPOLICY|ทดสอบ|4dpjrwXUOtYKT0G6QwqSrA8Opx5odpdq1bpiqa0ss9w=|U3540d4cf2c592d3530f2f490601d4ad7|SUCCESS
07-03-2018 12:59:42 OTP|08915504xx|504207|CMVXES
07-03-2018 11:26:17 OTP|08915504xx|918383|YEQKON
07-03-2018 07:45:03 OTP|08915504xx|796736|LQRQBO
07-03-2018 09:07:05 OTP|08915504xx|116660|NDRWPF
07-03-2018 09:07:13 TAXCERT|4dpjrwXUOtYKT0G6QwqSrA8Opx5odpdq1bpiqa0ss9w=|ragnarokmaster03@gmail.com|FAIL:NO TAX-CER IN CURRENT YEAR
07-03-2018 09:21:48 OTP|08915504xx|384524|HXKEON
07-03-2018 09:22:43 MYPOLICY|ทดสอบ|4dpjrwXUOtYKT0G6QwqSrA8Opx5odpdq1bpiqa0ss9w=|U3540d4cf2c592d3530f2f490601d4ad7|SUCCESS
