26-12-2017 08:20:58 OTP|08915504xx|861992|HVYZPO
26-12-2017 08:21:21 MYPOLICY|ทดสอบ|4dpjrwXUOtYKT0G6QwqSrA8Opx5odpdq1bpiqa0ss9w=|U8c71169f57bfb5c8d484f87ae16c75e4|SUCCESS
26-12-2017 08:45:07 OTP|08915504xx|962013|MCACJM
26-12-2017 08:45:09 OTP|08915504xx|532209|TSTWZJ
26-12-2017 08:46:09 OTP|08915504xx|984481|GVAHCM
26-12-2017 08:46:10 OTP|08915504xx|405590|FCMGLQ
26-12-2017 08:46:11 OTP|08915504xx|450959|SDYOQN
26-12-2017 08:46:12 OTP|08915504xx|674511|MMVMPU
26-12-2017 08:46:13 OTP|08915504xx|737879|XYWHGV
26-12-2017 08:46:14 OTP|08915504xx|361398|SKCATR
26-12-2017 08:46:15 OTP|08915504xx|957082|WXVOXN
26-12-2017 08:46:16 OTP|08915504xx|482637|MBCQFT
26-12-2017 08:46:17 OTP|08915504xx|937778|FBZLUV
26-12-2017 08:46:18 OTP|08915504xx|273910|KTCZCU
26-12-2017 08:46:18 OTP|08915504xx|146915|YBHVFC
26-12-2017 08:46:19 OTP|08915504xx|077783|SIEVYB
26-12-2017 08:46:20 OTP|08915504xx|401698|RAPUOL
26-12-2017 08:46:20 OTP|08915504xx|907396|YFTAXV
26-12-2017 08:47:14 OTP|08915504xx|046896|GQUXWQ
26-12-2017 08:47:15 OTP|08915504xx|902314|NURSWE
26-12-2017 08:47:21 OTP|08915504xx|540317|FVHYJJ
26-12-2017 08:47:21 OTP|08915504xx|369617|PTWMPZ
26-12-2017 08:47:23 OTP|08915504xx|400590|QFFVHA
26-12-2017 08:47:24 OTP|08915504xx|250462|EFOCIG
26-12-2017 08:47:25 OTP|08915504xx|145327|VNEGRN
26-12-2017 08:48:38 OTP|08915504xx|588152|OYYQSB
26-12-2017 08:49:05 OTP|08915504xx|619445|KXJPVZ
26-12-2017 08:49:06 OTP|08915504xx|669685|XEOWVG
26-12-2017 08:49:09 OTP|08915504xx|827745|DNRZLJ
26-12-2017 08:49:10 OTP|08915504xx|921569|CUJMXY
26-12-2017 08:49:11 OTP|08915504xx|996159|AVVWFW
26-12-2017 08:49:12 OTP|08915504xx|019330|RJMGUU
26-12-2017 08:49:12 OTP|08915504xx|576195|ABRYWF
26-12-2017 10:23:00 OTP|08915504xx|593455|TWVQYA
26-12-2017 10:26:22 MYPOLICY|ทดสอบ|4dpjrwXUOtYKT0G6QwqSrA8Opx5odpdq1bpiqa0ss9w=|U8c71169f57bfb5c8d484f87ae16c75e4|SUCCESS
26-12-2017 10:31:49 MYPOLICY|ทดสอบ|4dpjrwXUOtYKT0G6QwqSrA8Opx5odpdq1bpiqa0ss9w=|U8c71169f57bfb5c8d484f87ae16c75e4|SUCCESS
