29-12-2017 04:45:06 OTP|08915504xx|755410|DGBPXD
29-12-2017 04:55:58 OTP|08915504xx|007228|GLYQRW
29-12-2017 04:56:00 OTP|08915504xx|773520|HOCFNQ
29-12-2017 05:06:18 REGISTER|4dpjrwXUOtYKT0G6QwqSrA8Opx5odpdq1bpiqa0ss9w=|20061990xx|153990039900274168|ragnarokmaster03@gmail.com|SUCCESS
29-12-2017 05:06:19 OTP|08915504xx|978926|SVVODT
29-12-2017 05:07:04 OTP|08915504xx|277030|HDEADX
29-12-2017 05:07:26 OTP|08915504xx|976893|ZYEVVM
29-12-2017 05:08:03 REGISTER|4dpjrwXUOtYKT0G6QwqSrA8Opx5odpdq1bpiqa0ss9w=|20061990xx|153990039900274168|ragnarokmaster03@gmail.com|SUCCESS
29-12-2017 05:08:04 OTP|08915504xx|697345|LFTHZR
29-12-2017 05:09:42 REGISTER|4dpjrwXUOtYKT0G6QwqSrA8Opx5odpdq1bpiqa0ss9w=|20061990xx|123123231232131232|ragnarokmaster03@gmail.com|SUCCESS
29-12-2017 05:09:43 OTP|08915504xx|239216|JPTDRT
29-12-2017 05:09:51 MYPOLICY|ทดสอบ|4dpjrwXUOtYKT0G6QwqSrA8Opx5odpdq1bpiqa0ss9w=|U3540d4cf2c592d3530f2f490601d4ad7|SUCCESS
29-12-2017 05:09:53 MYPOLICY|ทดสอบ|4dpjrwXUOtYKT0G6QwqSrA8Opx5odpdq1bpiqa0ss9w=|U3540d4cf2c592d3530f2f490601d4ad7|SUCCESS
29-12-2017 05:25:37 OTP|08915504xx|821889|ELLUAL
29-12-2017 05:25:38 OTP|08915504xx|981661|PEOVKB
29-12-2017 05:25:39 OTP|08915504xx|150014|USCSWB
29-12-2017 05:25:39 OTP|08915504xx|667904|QMQNTL
29-12-2017 05:25:40 OTP|08915504xx|580119|GEGRNW
29-12-2017 05:25:40 OTP|08915504xx|318291|KHUPKI
29-12-2017 05:25:41 OTP|08915504xx|913503|DDQAOW
29-12-2017 05:25:42 OTP|08915504xx|764524|TBKRIV
29-12-2017 05:25:42 OTP|08915504xx|977049|QEHOFN
29-12-2017 05:25:43 OTP|08915504xx|419172|CGFLGA
29-12-2017 05:25:44 OTP|08915504xx|017275|EYXMXI
29-12-2017 05:25:44 OTP|08915504xx|588786|IHGKON
29-12-2017 05:25:45 OTP|08915504xx|394506|LNSEOV
29-12-2017 05:25:46 OTP|08915504xx|575182|VZYUOF
29-12-2017 05:25:47 OTP|08915504xx|149091|VGPZJN
29-12-2017 05:25:47 OTP|08915504xx|227511|DQDADN
29-12-2017 05:25:48 OTP|08915504xx|051309|HGPWYR
29-12-2017 05:25:49 OTP|08915504xx|556773|GBHIBA
29-12-2017 05:25:49 OTP|08915504xx|595861|DAVRWZ
29-12-2017 05:25:50 OTP|08915504xx|568709|OGZHGA
29-12-2017 05:25:51 OTP|08915504xx|455300|UJZACG
29-12-2017 05:25:51 OTP|08915504xx|205574|IUTEHA
29-12-2017 05:25:52 OTP|08915504xx|442123|FMJQGM
29-12-2017 05:25:52 OTP|08915504xx|638722|AKLLQT
29-12-2017 05:25:53 OTP|08915504xx|651091|XWHSSB
29-12-2017 05:25:54 OTP|08915504xx|758190|HBFKAS
29-12-2017 05:25:54 OTP|08915504xx|506570|BKMZEJ
29-12-2017 05:25:55 OTP|08915504xx|935591|ERHYUI
29-12-2017 05:25:55 OTP|08915504xx|647009|JZHHVM
29-12-2017 05:25:56 OTP|08915504xx|803093|XJYABW
29-12-2017 05:25:57 OTP|08915504xx|648619|JLJNSK
29-12-2017 05:25:57 OTP|08915504xx|827300|PDGPLE
29-12-2017 05:31:40 OTP|08915504xx|228713|WCPTFZ
29-12-2017 05:35:03 OTP|08915504xx|157439|YLOTCU
29-12-2017 05:56:35 OTP|08915504xx|924778|MVKFDG
29-12-2017 06:07:21 OTP|08915504xx|391209|VYXAKE
29-12-2017 06:14:42 REGISTER|4dpjrwXUOtYKT0G6QwqSrA8Opx5odpdq1bpiqa0ss9w=|12123123xx|123123131231321213|ragnarokmaster03@gmail.com|SUCCESS
29-12-2017 06:14:43 OTP|08915504xx|680135|QRZXWX
29-12-2017 06:14:58 OTP|08915504xx|686355|UNHNGV
29-12-2017 06:14:59 OTP|08915504xx|447807|TRFOOX
29-12-2017 06:14:59 OTP|08915504xx|406683|OBFWWC
29-12-2017 06:15:00 OTP|08915504xx|267959|WUVDCL
29-12-2017 06:15:01 OTP|08915504xx|270334|YYNARB
29-12-2017 06:15:01 OTP|08915504xx|965427|JDBKEL
29-12-2017 06:15:02 OTP|08915504xx|951709|HDNFGU
29-12-2017 06:15:03 OTP|08915504xx|962640|ARUJRB
29-12-2017 06:15:03 OTP|08915504xx|226930|NFHTJR
29-12-2017 06:15:05 OTP|08915504xx|266090|NNTQGP
29-12-2017 06:15:05 OTP|08915504xx|552182|IAKNAB
29-12-2017 06:15:06 OTP|08915504xx|318949|ZPOPYH
29-12-2017 06:15:06 OTP|08915504xx|567337|MCVLCE
29-12-2017 06:15:07 OTP|08915504xx|152717|WQRFKO
29-12-2017 06:15:08 OTP|08915504xx|342753|GUCTZY
29-12-2017 06:15:08 OTP|08915504xx|212792|NBHLTB
29-12-2017 06:15:09 OTP|08915504xx|740672|EGBEGK
29-12-2017 06:15:09 OTP|08915504xx|702866|SFRYEU
29-12-2017 06:15:10 OTP|08915504xx|973172|AWSHON
29-12-2017 06:15:11 OTP|08915504xx|359524|MLTCCY
29-12-2017 06:15:11 OTP|08915504xx|348785|AUIGNP
29-12-2017 06:15:12 OTP|08915504xx|704996|NXKDXV
29-12-2017 06:15:12 OTP|08915504xx|445708|YCHAGK
29-12-2017 06:15:13 OTP|08915504xx|663035|DKHWPU
29-12-2017 06:15:14 OTP|08915504xx|506311|YAHQVW
29-12-2017 06:15:14 OTP|08915504xx|073661|IHMLMQ
29-12-2017 06:15:15 OTP|08915504xx|843594|DTFIXW
29-12-2017 06:15:53 REGISTER|4dpjrwXUOtYKT0G6QwqSrA8Opx5odpdq1bpiqa0ss9w=|12321312xx|123123131231312121|ragnarokmaster03@gmail.com|SUCCESS
29-12-2017 06:15:53 OTP|08915504xx|361916|YEMVQF
29-12-2017 06:16:33 OTP|08915504xx|162861|UDGKHB
29-12-2017 06:22:38 REGISTER|4dpjrwXUOtYKT0G6QwqSrA8Opx5odpdq1bpiqa0ss9w=|12312321xx|123123131231221112|ragnarokmaster03@gmail.com|SUCCESS
29-12-2017 06:22:39 OTP|08915504xx|849915|CTIMLQ
29-12-2017 06:23:07 OTP|08915504xx|631337|NZBBII
29-12-2017 06:23:08 OTP|08915504xx|637619|UEYDRN
29-12-2017 06:23:32 OTP|08915504xx|959846|LODYVX
29-12-2017 06:23:32 OTP|08915504xx|180833|IHRHVO
29-12-2017 06:25:21 OTP|08915504xx|209098|ZYOIRE
29-12-2017 06:25:22 OTP|08915504xx|547515|HUTBEP
29-12-2017 06:25:22 OTP|08915504xx|030169|MTYKOR
29-12-2017 06:25:23 OTP|08915504xx|859931|FKKVXK
29-12-2017 06:26:32 OTP|08915504xx|828215|LMLFNH
29-12-2017 06:26:33 OTP|08915504xx|064887|YKPPYS
29-12-2017 06:26:33 OTP|08915504xx|521240|JDYEID
29-12-2017 06:26:34 OTP|08915504xx|361886|NSXVRY
29-12-2017 06:26:34 OTP|08915504xx|499529|AVRVSQ
29-12-2017 06:26:35 OTP|08915504xx|721785|CIJYCY
29-12-2017 06:26:36 OTP|08915504xx|818493|WIEOFV
29-12-2017 06:26:36 OTP|08915504xx|956641|GCXQLP
29-12-2017 06:26:37 OTP|08915504xx|502680|IRJUTT
29-12-2017 06:26:38 OTP|08915504xx|408185|QBAXLU
29-12-2017 06:29:35 OTP|08915504xx|810275|DDBGRP
29-12-2017 06:29:36 OTP|08915504xx|825206|QOSCWF
29-12-2017 06:30:00 OTP|08915504xx|740741|ONQSFS
29-12-2017 06:31:22 REGISTER|4dpjrwXUOtYKT0G6QwqSrA8Opx5odpdq1bpiqa0ss9w=|20011112xx|153221132211232123|ragnarokmaster03@gmail.com|SUCCESS
29-12-2017 06:31:22 OTP|08915504xx|333329|GOPZSK
29-12-2017 06:31:33 OTP|08915504xx|863113|DBYELD
29-12-2017 06:31:34 OTP|08915504xx|109068|KXLPLN
29-12-2017 06:32:12 OTP|08915504xx|864629|XONEJG
29-12-2017 06:32:12 OTP|08915504xx|112211|ZZFPVC
29-12-2017 06:32:40 OTP|08915504xx|513911|FKWNSV
29-12-2017 06:32:41 OTP|08915504xx|860214|GKWTKF
29-12-2017 06:32:41 OTP|08915504xx|178378|VSLDQD
29-12-2017 06:32:42 OTP|08915504xx|872639|QVBLNG
29-12-2017 06:34:19 OTP|08915504xx|181582|UAWHTV
29-12-2017 06:34:19 OTP|08915504xx|580823|VHCJDZ
29-12-2017 06:34:20 OTP|08915504xx|655142|QEOPKU
29-12-2017 06:34:21 OTP|08915504xx|598083|DTWPJY
29-12-2017 06:34:21 OTP|08915504xx|013180|XWVFCG
29-12-2017 06:34:22 OTP|08915504xx|014411|UNYGNH
29-12-2017 06:34:23 OTP|08915504xx|561283|MMUMVW
29-12-2017 06:34:23 OTP|08915504xx|309728|USPWRO
29-12-2017 06:34:44 OTP|08915504xx|697818|ESEOSG
29-12-2017 06:34:45 OTP|08915504xx|904882|RLNCJS
29-12-2017 06:34:46 OTP|08915504xx|977624|RLLPAV
29-12-2017 06:34:46 OTP|08915504xx|720870|VYGDIR
29-12-2017 06:37:37 OTP|08915504xx|646209|RWGWEC
29-12-2017 06:38:25 REGISTER|4dpjrwXUOtYKT0G6QwqSrA8Opx5odpdq1bpiqa0ss9w=|12313213xx|123123131231232121|ragnarokmaster03@gmail.com|SUCCESS
29-12-2017 06:38:26 OTP|08915504xx|903083|FEVCDP
29-12-2017 06:38:29 OTP|08915504xx|200465|MEFGOX
29-12-2017 06:38:30 OTP|08915504xx|567013|NLWBFS
29-12-2017 07:04:11 OTP|08915504xx|414016|LRBMFH
29-12-2017 07:04:12 OTP|08915504xx|261701|YVVLBT
