08-03-2018 04:27:55 OTP|08915504xx|893771|FFNKZH
08-03-2018 04:42:51 OTP|08915504xx|686894|JZXEOI
08-03-2018 04:46:27 OTP|08915504xx|060949|AFZMLE
08-03-2018 04:55:13 OTP|08915504xx|585824|KRSWBR
08-03-2018 04:55:23 MYPOLICY|ทดสอบ|4dpjrwXUOtYKT0G6QwqSrA8Opx5odpdq1bpiqa0ss9w=|U3540d4cf2c592d3530f2f490601d4ad7|SUCCESS
08-03-2018 05:11:08 OTP|08915504xx|050754|BVSGPC
08-03-2018 05:11:28 OTP|08915504xx|728111|KTOAFT
08-03-2018 05:12:32 OTP|08915504xx|103308|BUTFFQ
08-03-2018 05:13:05 MYPOLICY|ทดสอบ|4dpjrwXUOtYKT0G6QwqSrA8Opx5odpdq1bpiqa0ss9w=|U8c71169f57bfb5c8d484f87ae16c75e4|SUCCESS
08-03-2018 05:15:51 OTP|08915504xx|267627|VWECTB
08-03-2018 05:15:57 OTP|08915504xx|334131|ERXAJT
08-03-2018 05:23:33 OTP|08915504xx|303461|VZYAGX
08-03-2018 05:24:03 OTP|08915504xx|496845|IKPDNF
08-03-2018 05:25:14 OTP|08915504xx|275750|ZAKMOB
08-03-2018 05:26:03 MYPOLICY|ทดสอบ|4dpjrwXUOtYKT0G6QwqSrA8Opx5odpdq1bpiqa0ss9w=|U8c71169f57bfb5c8d484f87ae16c75e4|SUCCESS
08-03-2018 05:30:16 OTP|08915504xx|322221|AJOURZ
08-03-2018 05:33:07 MYPOLICY|ทดสอบ|4dpjrwXUOtYKT0G6QwqSrA8Opx5odpdq1bpiqa0ss9w=|U3540d4cf2c592d3530f2f490601d4ad7|SUCCESS
08-03-2018 05:34:53 OTP|08915504xx|352390|HWZRIK
08-03-2018 05:58:47 OTP|08915504xx|761466|ZLCGWD
08-03-2018 10:16:45 OTP|08915504xx|247936|ISEBNC
