05-12-2017 01:01:29 REGISTER|4dpjrwXUOtYKT0G6QwqSrA8Opx5odpdq1bpiqa0ss9w=|08081991xx|111111111111111111|fwd@gmail.com|SUCCESS
05-12-2017 01:19:18 OTP|08915504xx|235436|HUZTWB
05-12-2017 01:19:19 OTP|08915504xx|249894|OORIOK
05-12-2017 01:23:02 OTP|08915504xx|263806|IWTBUK
05-12-2017 01:23:18 OTP|08915504xx|068745|LSTSVG
05-12-2017 01:23:19 OTP|08915504xx|102240|SFJDUZ
05-12-2017 01:23:37 OTP|08915504xx|666386|HCITEW
05-12-2017 01:23:50 OTP|08915504xx|278097|IJCXLY
05-12-2017 01:24:01 OTP|08915504xx|064552|UXWFTY
05-12-2017 01:24:02 OTP|08915504xx|565527|UVGGEP
05-12-2017 01:24:24 OTP|08915504xx|743874|WAXGYD
05-12-2017 01:24:25 OTP|08915504xx|174104|KYYSOP
05-12-2017 01:27:03 OTP|08915504xx|424266|ANVFIM
05-12-2017 01:27:03 OTP|08915504xx|593905|PHCCIU
05-12-2017 01:28:10 OTP|08915504xx|365200|GDCQOV
05-12-2017 01:28:41 OTP|08915504xx|006632|ACKZBY
05-12-2017 01:28:42 OTP|08915504xx|650138|SLIPYS
05-12-2017 01:29:04 TAXCERT|4dpjrwXUOtYKT0G6QwqSrA8Opx5odpdq1bpiqa0ss9w=|fwd@gmail.com|SUCCESS
05-12-2017 01:29:26 TAXCERT|4dpjrwXUOtYKT0G6QwqSrA8Opx5odpdq1bpiqa0ss9w=|fwd@gmail.com|SUCCESS
05-12-2017 01:30:03 OTP|08915504xx|394320|CPTUOZ
05-12-2017 01:30:15 OTP|08915504xx|499272|PVRLZY
05-12-2017 01:30:16 OTP|08915504xx|315701|WMJBGJ
05-12-2017 01:30:32 TAXCERT|4dpjrwXUOtYKT0G6QwqSrA8Opx5odpdq1bpiqa0ss9w=|fwd@gmail.com|SUCCESS
05-12-2017 01:31:50 OTP|08915504xx|799559|YWKYPW
05-12-2017 01:37:52 OTP|08915504xx|131855|OEIBSO
05-12-2017 01:38:11 OTP|08915504xx|582853|IJKYPL
05-12-2017 01:38:20 OTP|08915504xx|598605|NJZHDG
05-12-2017 01:38:21 OTP|08915504xx|050396|ZMUGZA
05-12-2017 01:38:34 TAXCERT|4dpjrwXUOtYKT0G6QwqSrA8Opx5odpdq1bpiqa0ss9w=|fwd@gmail.com|SUCCESS
05-12-2017 01:38:35 OTP|08915504xx|844534|AOWVNL
05-12-2017 01:39:10 OTP|08915504xx|659128|ZERSAR
05-12-2017 01:39:11 OTP|08915504xx|702874|JEVPJB
05-12-2017 01:39:35 OTP|08915504xx|735663|WTPKQQ
05-12-2017 01:39:47 OTP|08915504xx|198646|FSKCGS
05-12-2017 01:39:48 OTP|08915504xx|845434|DHSAHC
05-12-2017 01:39:55 TAXCERT|4dpjrwXUOtYKT0G6QwqSrA8Opx5odpdq1bpiqa0ss9w=|fwd@gmail.com|SUCCESS
05-12-2017 01:39:56 OTP|08915504xx|998892|MTTSAW
05-12-2017 01:41:03 OTP|08915504xx|278770|XKUMJQ
05-12-2017 01:41:04 OTP|08915504xx|204117|HQRRFB
05-12-2017 01:47:29 OTP|08915504xx|445705|MOTCAT
05-12-2017 01:48:29 OTP|08915504xx|785933|XAFJWG
05-12-2017 01:48:30 OTP|08915504xx|006762|FLNSTC
05-12-2017 01:49:23 OTP|08915504xx|155986|RLXAHT
05-12-2017 01:49:52 OTP|08915504xx|638537|XRXIKQ
05-12-2017 01:49:53 OTP|08915504xx|730729|APONLZ
05-12-2017 01:49:57 OTP|08915504xx|294643|NNPFYG
05-12-2017 01:50:19 OTP|08915504xx|141328|UMZUDZ
05-12-2017 01:50:19 OTP|08915504xx|082182|JMUOTU
05-12-2017 01:50:27 OTP|08915504xx|446736|BIYEAY
05-12-2017 01:50:32 OTP|08915504xx|086880|JXPGBF
05-12-2017 01:50:32 OTP|08915504xx|146679|VVCZME
05-12-2017 01:51:16 OTP|08915504xx|010372|MBFKQF
05-12-2017 01:51:22 OTP|08915504xx|322722|BCZLFZ
05-12-2017 01:54:01 OTP|08915504xx|488504|NZNSQR
05-12-2017 01:56:17 OTP|08915504xx|731533|JGHSNY
05-12-2017 01:56:18 OTP|08915504xx|102233|INCOBP
05-12-2017 01:56:27 MYPOLICY|ทดสอบ|4dpjrwXUOtYKT0G6QwqSrA8Opx5odpdq1bpiqa0ss9w=|U0a6eb3ec8ce36a962b94b0eb8effb320|SUCCESS
05-12-2017 01:56:28 OTP|08915504xx|256676|SFRDUH
05-12-2017 01:58:56 OTP|08915504xx|491246|FNZHKM
05-12-2017 01:59:02 OTP|08915504xx|092395|TRUNSW
05-12-2017 02:01:38 OTP|08915504xx|523023|PDBMWB
05-12-2017 02:02:30 OTP|08915504xx|859551|DHCVGG
05-12-2017 02:50:28 REGISTER|4dpjrwXUOtYKT0G6QwqSrA8Opx5odpdq1bpiqa0ss9w=|27081991xx|120970009700368366|swodsman.smo@gmail.com|SUCCESS
05-12-2017 02:50:29 OTP|08915504xx|190999|ZFWNBH
05-12-2017 03:03:25 OTP|08915504xx|832030|BGGAYK
05-12-2017 03:03:26 OTP|08915504xx|099770|DNGYHS
05-12-2017 03:04:24 OTP|08915504xx|272147|IUQVPO
05-12-2017 03:04:25 OTP|08915504xx|832081|AANBCF
05-12-2017 03:04:37 MYPOLICY|ทดสอบ|4dpjrwXUOtYKT0G6QwqSrA8Opx5odpdq1bpiqa0ss9w=|U0a6eb3ec8ce36a962b94b0eb8effb320|SUCCESS
05-12-2017 03:04:39 OTP|08915504xx|995523|FKDBBY
05-12-2017 03:05:27 OTP|08915504xx|882000|DOYYZQ
05-12-2017 03:05:27 OTP|08915504xx|390127|DZHFNB
05-12-2017 03:05:36 TAXCERT|4dpjrwXUOtYKT0G6QwqSrA8Opx5odpdq1bpiqa0ss9w=|swodsman.smo@gmail.com|SUCCESS
05-12-2017 03:05:37 OTP|08915504xx|764680|MSDMTH
05-12-2017 03:13:20 REGISTER|4dpjrwXUOtYKT0G6QwqSrA8Opx5odpdq1bpiqa0ss9w=|11111111111xx|11111111|11@email.com|SUCCESS
05-12-2017 03:13:21 OTP|08915504xx|911281|NCTDAV
05-12-2017 03:13:44 REGISTER|4dpjrwXUOtYKT0G6QwqSrA8Opx5odpdq1bpiqa0ss9w=|11111111xx|111111111111111111|111@email.com|SUCCESS
05-12-2017 03:13:45 OTP|08915504xx|595301|DLFRAA
05-12-2017 03:16:09 OTP|08915504xx|289277|MIEHGV
05-12-2017 03:19:02 OTP|08915504xx|896038|DAOSYE
05-12-2017 03:19:45 OTP|08915504xx|159905|VIOHSE
05-12-2017 03:20:32 OTP|08915504xx|957527|AZJCLO
05-12-2017 03:20:33 OTP|08915504xx|760064|XVWDDR
05-12-2017 03:21:07 OTP|08915504xx|260733|PVHYQJ
05-12-2017 03:21:08 OTP|08915504xx|676080|DILJDT
05-12-2017 03:22:49 OTP|08915504xx|885594|NFTMXB
05-12-2017 03:22:50 OTP|08915504xx|126399|IFCOAB
05-12-2017 03:23:26 OTP|08915504xx|551116|SEPAKE
05-12-2017 03:24:13 OTP|08915504xx|416299|QVTBTB
05-12-2017 03:24:14 OTP|08915504xx|689594|GXMUGS
05-12-2017 03:24:28 OTP|08915504xx|758131|LDDTJG
05-12-2017 03:24:51 OTP|08915504xx|938082|GWMHGA
05-12-2017 03:24:52 OTP|08915504xx|760228|CGKGVV
05-12-2017 03:27:02 TAXCERT|4dpjrwXUOtYKT0G6QwqSrA8Opx5odpdq1bpiqa0ss9w=|111@email.com|SUCCESS
05-12-2017 03:27:03 OTP|08915504xx|940387|WYIGKR
05-12-2017 03:27:05 OTP|08915504xx|830387|ACYWQI
05-12-2017 03:27:08 OTP|08915504xx|106230|XSDDNU
05-12-2017 03:27:14 TAXCERT|4dpjrwXUOtYKT0G6QwqSrA8Opx5odpdq1bpiqa0ss9w=|111@email.com|SUCCESS
05-12-2017 03:27:24 OTP|08915504xx|010807|XBCQVH
05-12-2017 03:27:25 OTP|08915504xx|659688|BWGWXB
05-12-2017 03:27:35 TAXCERT|4dpjrwXUOtYKT0G6QwqSrA8Opx5odpdq1bpiqa0ss9w=|swodsman.smo@gmail.com|SUCCESS
05-12-2017 03:27:36 OTP|08915504xx|764895|NLVIRA
05-12-2017 03:27:53 OTP|08915504xx|307696|KLSMNO
05-12-2017 03:27:54 OTP|08915504xx|498646|IMDNZI
05-12-2017 03:28:20 OTP|08915504xx|203776|RKQSMZ
05-12-2017 03:28:21 OTP|08915504xx|864698|MFQAWB
05-12-2017 03:28:37 OTP|08915504xx|085726|XNVBEW
05-12-2017 03:28:38 OTP|08915504xx|953168|BQPTLR
05-12-2017 03:29:33 OTP|08915504xx|810992|YDAHVT
05-12-2017 03:29:34 OTP|08915504xx|349877|EXDKWK
05-12-2017 03:30:24 MYPOLICY|ทดสอบ|4dpjrwXUOtYKT0G6QwqSrA8Opx5odpdq1bpiqa0ss9w=|U8c71169f57bfb5c8d484f87ae16c75e4|SUCCESS
05-12-2017 03:30:25 OTP|08915504xx|898184|YHAFCO
05-12-2017 03:30:30 OTP|08915504xx|460103|FQISCC
05-12-2017 03:30:36 MYPOLICY|ทดสอบ|4dpjrwXUOtYKT0G6QwqSrA8Opx5odpdq1bpiqa0ss9w=|U8c71169f57bfb5c8d484f87ae16c75e4|SUCCESS
05-12-2017 03:34:01 OTP|08915504xx|350738|FBXBZJ
05-12-2017 03:34:02 OTP|08915504xx|256745|NNEPAI
05-12-2017 03:34:11 OTP|08915504xx|264077|LWQRNB
05-12-2017 03:34:20 OTP|08915504xx|347654|VYEJJU
05-12-2017 03:34:21 OTP|08915504xx|724881|ZSATGH
05-12-2017 03:34:26 OTP|08915504xx|717237|ZNQECK
05-12-2017 03:34:27 OTP|08915504xx|417050|ZRBGNO
05-12-2017 03:34:29 OTP|08915504xx|112534|BSWHBO
05-12-2017 03:34:30 OTP|08915504xx|852093|SSJKSH
05-12-2017 03:34:34 OTP|08915504xx|467498|BWNRXX
05-12-2017 03:34:35 OTP|08915504xx|990167|ZBKGJM
05-12-2017 03:35:09 REGISTER|4dpjrwXUOtYKT0G6QwqSrA8Opx5odpdq1bpiqa0ss9w=|27081991xx|120970009700368366|swodsman.smo@gmail.com|SUCCESS
05-12-2017 03:35:10 OTP|08915504xx|503490|IZVZOA
05-12-2017 03:35:54 REGISTER|4dpjrwXUOtYKT0G6QwqSrA8Opx5odpdq1bpiqa0ss9w=|27081991xx|120970009700368366|swodsman.smo@gmail.com|SUCCESS
05-12-2017 03:35:55 OTP|08915504xx|352034|ZHUHRJ
05-12-2017 03:36:54 REGISTER|27081991xx|120970009700368366|swodsman.smo@gmail.com|FAIL:NO DATA
05-12-2017 06:11:16 REGISTER|4dpjrwXUOtYKT0G6QwqSrA8Opx5odpdq1bpiqa0ss9w=|11111111xx|111111111111111111|pathompong@yellow-idea.com|SUCCESS
05-12-2017 06:11:17 OTP|08915504xx|717203|SASWRS
05-12-2017 07:30:20 REGISTER|4dpjrwXUOtYKT0G6QwqSrA8Opx5odpdq1bpiqa0ss9w=|20061990xx|153990039900274168|ragnarokmaster03@gmail.com|SUCCESS
05-12-2017 07:30:21 OTP|08915504xx|510423|NPDZGP
05-12-2017 07:32:14 OTP|08915504xx|070013|NACUBT
05-12-2017 07:32:28 OTP|08915504xx|061632|EZSWCX
05-12-2017 07:32:29 OTP|08915504xx|472373|BWQXKJ
05-12-2017 07:33:48 OTP|08915504xx|167365|THYIRK
05-12-2017 07:34:00 OTP|08915504xx|351442|BPIZPE
05-12-2017 07:34:01 OTP|08915504xx|045621|EUOCKA
05-12-2017 07:35:41 OTP|08915504xx|896803|MTYUWZ
05-12-2017 07:36:29 OTP|08915504xx|840625|OTVXJR
05-12-2017 07:36:29 OTP|08915504xx|741591|BFQWYU
05-12-2017 07:40:11 OTP|08915504xx|362721|HQAROX
05-12-2017 07:42:04 OTP|08915504xx|061363|WSWCXK
05-12-2017 07:42:05 OTP|08915504xx|088146|FKCSQM
05-12-2017 07:43:08 OTP|08915504xx|088722|WPMROX
05-12-2017 07:43:15 OTP|08915504xx|505953|UPPUCU
05-12-2017 08:01:29 OTP|08915504xx|278438|RHCAWN
05-12-2017 08:01:43 OTP|08915504xx|997033|TXMVZW
05-12-2017 08:01:44 OTP|08915504xx|817501|OKJQEP
05-12-2017 08:02:08 MYPOLICY|ทดสอบ|4dpjrwXUOtYKT0G6QwqSrA8Opx5odpdq1bpiqa0ss9w=|U0a6eb3ec8ce36a962b94b0eb8effb320|SUCCESS
05-12-2017 08:02:09 OTP|08915504xx|406993|AVDFRQ
05-12-2017 08:03:32 OTP|08915504xx|399790|SGFBQU
05-12-2017 08:03:46 OTP|08915504xx|836561|HGVSXT
05-12-2017 08:03:47 OTP|08915504xx|026211|VIALHT
05-12-2017 08:03:54 TAXCERT|4dpjrwXUOtYKT0G6QwqSrA8Opx5odpdq1bpiqa0ss9w=|ragnarokmaster03@gmail.com|SUCCESS
05-12-2017 08:03:55 OTP|08915504xx|407347|BLWDWI
05-12-2017 08:05:07 OTP|08915504xx|740905|ZPNETI
05-12-2017 08:05:12 OTP|08915504xx|492040|GHIITG
05-12-2017 08:05:13 OTP|08915504xx|020898|KDFNRP
05-12-2017 08:05:18 TAXCERT|4dpjrwXUOtYKT0G6QwqSrA8Opx5odpdq1bpiqa0ss9w=|ragnarokmaster03@gmail.com|SUCCESS
05-12-2017 08:05:19 OTP|08915504xx|484977|BUQAUO
05-12-2017 08:05:44 OTP|08915504xx|492633|MGZDLO
05-12-2017 08:05:56 OTP|08915504xx|621928|OYJDKN
05-12-2017 08:05:57 OTP|08915504xx|838457|LRVPKL
05-12-2017 08:06:03 TAXCERT|4dpjrwXUOtYKT0G6QwqSrA8Opx5odpdq1bpiqa0ss9w=|ragnarokmaster03@gmail.com|SUCCESS
05-12-2017 08:06:04 OTP|08915504xx|445708|YWHPEB
05-12-2017 08:06:20 OTP|08915504xx|999310|MSKOBM
05-12-2017 08:06:21 OTP|08915504xx|048188|LUCEPL
05-12-2017 08:06:21 OTP|08915504xx|810526|CIJDYA
05-12-2017 08:06:43 OTP|08915504xx|499783|TJGPEM
05-12-2017 08:06:52 OTP|08915504xx|738993|WDXDRD
05-12-2017 08:06:52 OTP|08915504xx|175083|VTKWKD
05-12-2017 08:07:00 TAXCERT|4dpjrwXUOtYKT0G6QwqSrA8Opx5odpdq1bpiqa0ss9w=|ragnarokmaster03@gmail.com|SUCCESS
05-12-2017 08:07:01 OTP|08915504xx|902115|AETRLM
05-12-2017 08:08:44 OTP|08915504xx|366882|MGXXUM
05-12-2017 08:09:18 OTP|08915504xx|781502|WYRIUL
05-12-2017 08:09:19 OTP|08915504xx|422146|COFKZV
05-12-2017 08:10:19 TAXCERT|4dpjrwXUOtYKT0G6QwqSrA8Opx5odpdq1bpiqa0ss9w=|ragnarokmaster03@gmail.com|SUCCESS
05-12-2017 08:10:20 OTP|08915504xx|487346|DIFUEG
05-12-2017 08:14:05 OTP|08915504xx|267145|JMIVRY
05-12-2017 08:14:13 OTP|08915504xx|409296|OWVXCJ
05-12-2017 08:14:13 OTP|08915504xx|464317|XXIJJX
05-12-2017 08:14:45 TAXCERT|4dpjrwXUOtYKT0G6QwqSrA8Opx5odpdq1bpiqa0ss9w=|ragnarokmaster03@gmail.com|SUCCESS
05-12-2017 08:14:47 OTP|08915504xx|779998|QMGSUP
05-12-2017 08:15:30 OTP|08915504xx|287585|KMQADG
05-12-2017 08:15:50 OTP|08915504xx|154006|COCJYB
05-12-2017 08:15:51 OTP|08915504xx|043618|EAGTYP
05-12-2017 08:16:17 OTP|08915504xx|077590|NYZROZ
05-12-2017 08:16:21 OTP|08915504xx|686958|MQFGQP
05-12-2017 08:17:53 OTP|08915504xx|570272|CIWLXF
05-12-2017 08:18:05 OTP|08915504xx|521473|ORIAIC
05-12-2017 08:18:55 OTP|08915504xx|896680|EZMDNK
05-12-2017 08:19:05 OTP|08915504xx|337601|VJIPWW
05-12-2017 09:20:14 OTP|08915504xx|393161|WEYLLF
05-12-2017 09:24:00 OTP|08915504xx|554609|MTOPOE
05-12-2017 09:28:51 OTP|08915504xx|030099|SHSFCX
05-12-2017 09:28:57 OTP|08915504xx|673180|KHSIZC
05-12-2017 09:28:58 OTP|08915504xx|549141|OJFKTO
05-12-2017 09:29:10 TAXCERT|4dpjrwXUOtYKT0G6QwqSrA8Opx5odpdq1bpiqa0ss9w=|ragnarokmaster03@gmail.com|SUCCESS
05-12-2017 09:29:12 OTP|08915504xx|454118|KWWSNJ
05-12-2017 09:29:21 OTP|08915504xx|363207|QCTSIL
05-12-2017 09:29:22 OTP|08915504xx|923028|OXJJUE
05-12-2017 09:29:23 OTP|08915504xx|970637|PONWNG
05-12-2017 09:29:28 OTP|08915504xx|438134|MCHJTG
05-12-2017 09:29:29 OTP|08915504xx|579362|YMIQXC
05-12-2017 09:29:30 OTP|08915504xx|488048|BJTVMO
05-12-2017 09:29:32 OTP|08915504xx|914733|ITMJEH
05-12-2017 09:29:35 OTP|08915504xx|444922|CUDMEG
05-12-2017 09:29:36 OTP|08915504xx|968438|BXRTSE
05-12-2017 09:29:41 OTP|08915504xx|057797|PPZPMH
05-12-2017 09:30:22 OTP|08915504xx|112400|LUEALC
05-12-2017 09:37:52 OTP|08915504xx|834069|ZCVHYN
05-12-2017 09:37:53 OTP|08915504xx|867152|XBUSXG
05-12-2017 09:38:03 OTP|08915504xx|615509|FNJZGN
05-12-2017 09:38:30 OTP|08915504xx|346713|IGXHRA
05-12-2017 09:38:31 OTP|08915504xx|377527|ABNNTM
05-12-2017 09:39:13 OTP|08915504xx|600367|CBNYAT
05-12-2017 09:39:34 OTP|08915504xx|598276|TSDXTH
05-12-2017 09:39:35 OTP|08915504xx|170564|RIQFMD
05-12-2017 01:53:58 OTP|08915504xx|600422|QDFEJI
05-12-2017 01:53:59 OTP|08915504xx|679102|UJHAYT
05-12-2017 01:54:07 OTP|08915504xx|878260|BMKTPA
