06-12-2017 03:32:35 REGISTER|4dpjrwXUOtYKT0G6QwqSrA8Opx5odpdq1bpiqa0ss9w=|20061990xx|153990039900274168|ragnarokmaster03@gmail.com|SUCCESS
06-12-2017 03:32:36 OTP|08915504xx|567800|UIHMOU
06-12-2017 03:32:46 TAXCERT|4dpjrwXUOtYKT0G6QwqSrA8Opx5odpdq1bpiqa0ss9w=|ragnarokmaster03@gmail.com|SUCCESS
06-12-2017 03:32:48 OTP|08915504xx|650121|IHECMN
06-12-2017 03:33:00 TAXCERT|4dpjrwXUOtYKT0G6QwqSrA8Opx5odpdq1bpiqa0ss9w=|1234|SUCCESS
06-12-2017 04:04:14 OTP|08915504xx|201572|MJWYRE
06-12-2017 04:04:15 OTP|08915504xx|381202|KGTKBB
06-12-2017 04:09:57 OTP|08915504xx|720082|YDEHRN
06-12-2017 04:09:58 OTP|08915504xx|408729|PROTVC
06-12-2017 04:10:06 TAXCERT|4dpjrwXUOtYKT0G6QwqSrA8Opx5odpdq1bpiqa0ss9w=|ragnarokmaster03@gmail.com|SUCCESS
06-12-2017 04:10:12 TAXCERT|4dpjrwXUOtYKT0G6QwqSrA8Opx5odpdq1bpiqa0ss9w=|ragnarokmaster03@gmail.com|SUCCESS
06-12-2017 04:13:26 OTP|08915504xx|807825|VCFESY
06-12-2017 04:13:27 OTP|08915504xx|841298|HSKBSO
06-12-2017 04:13:38 TAXCERT|4dpjrwXUOtYKT0G6QwqSrA8Opx5odpdq1bpiqa0ss9w=|12345|SUCCESS
06-12-2017 04:13:44 TAXCERT|4dpjrwXUOtYKT0G6QwqSrA8Opx5odpdq1bpiqa0ss9w=||SUCCESS
06-12-2017 04:14:39 OTP|08915504xx|041472|JSTNET
06-12-2017 04:14:40 OTP|08915504xx|977232|OXLHNJ
06-12-2017 04:14:50 TAXCERT|4dpjrwXUOtYKT0G6QwqSrA8Opx5odpdq1bpiqa0ss9w=||SUCCESS
06-12-2017 04:15:31 OTP|08915504xx|680485|FLOOZA
06-12-2017 04:15:32 OTP|08915504xx|642503|HENTVM
06-12-2017 04:15:40 TAXCERT|4dpjrwXUOtYKT0G6QwqSrA8Opx5odpdq1bpiqa0ss9w=||SUCCESS
06-12-2017 04:16:50 OTP|08915504xx|512616|USDJJU
06-12-2017 04:17:07 OTP|08915504xx|756444|WYXDEL
06-12-2017 04:18:12 OTP|08915504xx|786202|FTBLJY
06-12-2017 04:18:16 OTP|08915504xx|123134|RIITAF
06-12-2017 04:18:16 OTP|08915504xx|743478|TRBAGB
06-12-2017 04:18:24 TAXCERT|4dpjrwXUOtYKT0G6QwqSrA8Opx5odpdq1bpiqa0ss9w=||SUCCESS
06-12-2017 04:21:24 OTP|08915504xx|765025|NLGNYE
06-12-2017 04:21:25 OTP|08915504xx|871081|MICGZP
06-12-2017 04:30:31 OTP|08915504xx|406477|DAAQPW
06-12-2017 04:30:32 OTP|08915504xx|159633|PUZGAQ
06-12-2017 04:32:30 OTP|08915504xx|135627|GKSPUK
06-12-2017 04:32:31 OTP|08915504xx|590775|JEWJTX
06-12-2017 04:34:51 OTP|08915504xx|002553|UXTAVO
06-12-2017 04:34:52 OTP|08915504xx|985088|HWCCDN
06-12-2017 04:35:03 TAXCERT|4dpjrwXUOtYKT0G6QwqSrA8Opx5odpdq1bpiqa0ss9w=|ragnarokmaster03@gmail.com|SUCCESS
06-12-2017 05:54:35 OTP|08915504xx|521813|YCHXOD
06-12-2017 05:54:36 OTP|08915504xx|240716|MQRPMZ
06-12-2017 07:02:23 OTP|08915504xx|093471|MWRKOL
06-12-2017 07:02:24 OTP|08915504xx|561046|YDGJKT
06-12-2017 07:04:15 OTP|08915504xx|870834|NKBSOZ
06-12-2017 07:08:31 REGISTER|4dpjrwXUOtYKT0G6QwqSrA8Opx5odpdq1bpiqa0ss9w=|20061990xx|153990039900274168|ragnarokmaster03@gmail.com|SUCCESS
06-12-2017 07:08:32 OTP|08915504xx|299234|XPAOUU
06-12-2017 07:08:43 TAXCERT|4dpjrwXUOtYKT0G6QwqSrA8Opx5odpdq1bpiqa0ss9w=|ragnarokmaster03@gmail.com|SUCCESS
06-12-2017 07:08:44 OTP|08915504xx|257199|TCXENM
06-12-2017 07:10:06 TAXCERT|4dpjrwXUOtYKT0G6QwqSrA8Opx5odpdq1bpiqa0ss9w=|ragnarokmaster03@gmail.com|SUCCESS
06-12-2017 09:28:02 OTP|08915504xx|674198|EFFZTQ
06-12-2017 09:28:04 OTP|08915504xx|648558|BTULXP
06-12-2017 09:28:28 OTP|08915504xx|292289|UNWPOC
06-12-2017 09:28:30 OTP|08915504xx|089799|SOQMKG
06-12-2017 01:15:07 OTP|xx|466057|UOZOPA
06-12-2017 01:15:09 OTP|xx|416184|NHKPKN
06-12-2017 01:15:22 OTP|xx|013482|KZKHTG
06-12-2017 09:14:55 OTP|xx|818689|VMPSKH
06-12-2017 09:14:56 OTP|xx|748567|QOBFLR
06-12-2017 09:15:41 OTP|xx|807295|GKWQHF
06-12-2017 09:15:51 OTP|xx|272058|JBYVVS
06-12-2017 09:27:56 OTP|xx|352730|DBTHOF
06-12-2017 09:28:30 OTP|xx|744009|YYQMFS
06-12-2017 09:29:36 OTP|xx|451973|SUUHLR
06-12-2017 09:30:13 OTP|xx|063780|NMGNMI
06-12-2017 09:32:53 OTP|xx|062081|CXVKZF
06-12-2017 09:33:36 OTP|xx|235765|ZTOYBF
06-12-2017 09:37:54 OTP|xx|614074|MWHAXG
06-12-2017 09:38:10 OTP|xx|470779|UQFHNM
06-12-2017 10:13:31 OTP|xx|058487|CNOWKD
06-12-2017 10:13:53 OTP|xx|895927|SGVHGS
06-12-2017 10:15:52 OTP|xx|658920|JWGRPC
06-12-2017 10:16:16 TAXCERT|||SUCCESS
06-12-2017 10:16:17 OTP|xx|588784|FKTLJF
06-12-2017 10:16:28 OTP|xx|696418|BAHFVV
06-12-2017 10:16:28 OTP|xx|834205|NGZMCG
06-12-2017 10:16:29 OTP|xx|732094|KWWPRO
06-12-2017 10:16:47 OTP|xx|595137|OGIJFG
06-12-2017 10:16:47 OTP|xx|722051|RUKIUM
06-12-2017 10:16:48 OTP|xx|229382|PNOLDA
06-12-2017 10:19:35 OTP|xx|286066|SRFZNE
06-12-2017 11:02:10 OTP|xx|797601|JSJXSD
06-12-2017 11:04:20 OTP|xx|087737|YBRRHV
06-12-2017 11:05:08 OTP|xx|785940|POOXTF
06-12-2017 11:10:35 OTP|xx|748521|YITMFP
06-12-2017 11:11:18 OTP|xx|552724|NZUNLA
06-12-2017 11:12:15 OTP|xx|411786|EHXAWB
06-12-2017 11:12:58 OTP|xx|734248|AAUALD
06-12-2017 11:13:27 OTP|xx|887160|JRDJTA
06-12-2017 11:13:36 OTP|xx|174429|PCPQNV
06-12-2017 11:15:58 OTP|xx|302790|VPSFWW
06-12-2017 11:15:58 OTP|xx|038931|MQAZMG
06-12-2017 11:15:59 OTP|xx|456405|NVCVKG
06-12-2017 11:16:00 OTP|xx|158481|DFZWTA
06-12-2017 11:19:51 OTP|xx|810738|UWPHFO
06-12-2017 11:19:58 OTP|xx|555464|GNRUGF
06-12-2017 11:21:14 OTP|xx|980172|CQYFSS
06-12-2017 11:22:38 OTP|xx|537246|UMAULJ
