21-11-2017 12:08:50 OTP|08915504xx|957879|MLYIAN
21-11-2017 12:08:59 MYPOLICY|ทดสอบ|4dpjrwXUOtYKT0G6QwqSrA8Opx5odpdq1bpiqa0ss9w=|U0a6eb3ec8ce36a962b94b0eb8effb320|SUCCESS
21-11-2017 03:22:37 REGISTER|4dpjrwXUOtYKT0G6QwqSrA8Opx5odpdq1bpiqa0ss9w=|11111111111xx|11111111|email@email.com|SUCCESS
21-11-2017 03:22:38 OTP|08915504xx|825033|WTMYCB
21-11-2017 03:44:42 OTP|08915504xx|083784|HZBUNW
21-11-2017 03:44:47 MYPOLICY|ทดสอบ|4dpjrwXUOtYKT0G6QwqSrA8Opx5odpdq1bpiqa0ss9w=|U8c71169f57bfb5c8d484f87ae16c75e4|SUCCESS
