16-01-2018 01:07:54 OTP|08915504xx|531404|FEDIRP
16-01-2018 01:08:01 TAXCERT|4dpjrwXUOtYKT0G6QwqSrA8Opx5odpdq1bpiqa0ss9w=|ragnarokmaster03@gmail.com|FAIL:NO TAX-CER IN CURRENT YEAR
16-01-2018 01:09:47 TAXCERT|4dpjrwXUOtYKT0G6QwqSrA8Opx5odpdq1bpiqa0ss9w=|ragnarokmaster03@gmail.com|FAIL:NO TAX-CER IN CURRENT YEAR
16-01-2018 01:10:40 TAXCERT|4dpjrwXUOtYKT0G6QwqSrA8Opx5odpdq1bpiqa0ss9w=|ragnarokmaster03@gmail.com|FAIL:NO TAX-CER IN CURRENT YEAR
16-01-2018 01:11:14 TAXCERT|4dpjrwXUOtYKT0G6QwqSrA8Opx5odpdq1bpiqa0ss9w=|ragnarokmaster03@gmail.com|FAIL:NO TAX-CER IN CURRENT YEAR
16-01-2018 01:13:22 TAXCERT|4dpjrwXUOtYKT0G6QwqSrA8Opx5odpdq1bpiqa0ss9w=|ragnarokmaster03@gmail.com|FAIL:NO TAX-CER IN CURRENT YEAR
16-01-2018 01:49:01 OTP|08915504xx|932758|RFYTOI
16-01-2018 01:51:11 OTP|08915504xx|823135|YCLLIW
16-01-2018 02:03:31 OTP|08915504xx|986419|QLWQTW
16-01-2018 02:33:57 OTP|08915504xx|732147|WTVKKI
16-01-2018 02:46:48 OTP|08915504xx|991665|FNTCXM
16-01-2018 02:46:50 OTP|08915504xx|077107|JRNFGF
16-01-2018 02:49:53 OTP|08915504xx|910003|BTWZTQ
16-01-2018 02:50:00 TAXCERT|4dpjrwXUOtYKT0G6QwqSrA8Opx5odpdq1bpiqa0ss9w=|ragnarokmaster03@gmail.com|FAIL:NO TAX-CER IN CURRENT YEAR
16-01-2018 02:53:40 MYPOLICY|ทดสอบ|4dpjrwXUOtYKT0G6QwqSrA8Opx5odpdq1bpiqa0ss9w=|U3540d4cf2c592d3530f2f490601d4ad7|SUCCESS
16-01-2018 02:53:59 MYPOLICY|ทดสอบ|4dpjrwXUOtYKT0G6QwqSrA8Opx5odpdq1bpiqa0ss9w=|U0a6eb3ec8ce36a962b94b0eb8effb320|SUCCESS
16-01-2018 02:58:54 TAXCERT|4dpjrwXUOtYKT0G6QwqSrA8Opx5odpdq1bpiqa0ss9w=|swodsman.smo@gmail.com|FAIL:NO TAX-CER IN CURRENT YEAR
16-01-2018 02:59:20 TAXCERT|4dpjrwXUOtYKT0G6QwqSrA8Opx5odpdq1bpiqa0ss9w=|swodsman.smo@gmail.com|FAIL:NO TAX-CER IN CURRENT YEAR
16-01-2018 03:27:44 OTP|08915504xx|323934|FPCJJD
16-01-2018 03:27:57 OTP|08915504xx|328445|DZBZSP
16-01-2018 03:34:45 MYPOLICY|ทดสอบ|4dpjrwXUOtYKT0G6QwqSrA8Opx5odpdq1bpiqa0ss9w=|U8c71169f57bfb5c8d484f87ae16c75e4|SUCCESS
16-01-2018 03:40:24 OTP|08915504xx|202009|DAMPPB
16-01-2018 03:40:25 OTP|08915504xx|000838|YVOQXM
16-01-2018 03:40:46 OTP|08915504xx|582799|OLJYHD
16-01-2018 03:40:47 OTP|08915504xx|004538|CSKAYL
16-01-2018 03:40:49 OTP|08915504xx|966237|AHRIDF
16-01-2018 03:40:49 OTP|08915504xx|512864|USKAWC
16-01-2018 03:40:50 OTP|08915504xx|309079|ICMPFX
16-01-2018 03:40:51 OTP|08915504xx|205497|PGZXRM
16-01-2018 03:40:52 OTP|08915504xx|870724|VFCTTR
16-01-2018 03:40:53 OTP|08915504xx|509702|PYBGWC
16-01-2018 03:40:54 OTP|08915504xx|268211|BQFAEC
16-01-2018 03:40:55 OTP|08915504xx|733029|GOBMVL
16-01-2018 03:40:56 OTP|08915504xx|835386|JNVMZA
16-01-2018 03:40:57 OTP|08915504xx|693049|YWBRSO
16-01-2018 03:40:58 OTP|08915504xx|605135|WQZHCN
16-01-2018 03:40:58 OTP|08915504xx|351116|BUNDIM
16-01-2018 03:40:59 OTP|08915504xx|050561|BPVXWO
16-01-2018 03:41:00 OTP|08915504xx|202698|HAQEUX
16-01-2018 03:41:01 OTP|08915504xx|294949|UDTPPY
16-01-2018 03:41:02 OTP|08915504xx|374382|YXWWDX
16-01-2018 03:41:03 OTP|08915504xx|821490|RYMHCM
16-01-2018 03:41:04 OTP|08915504xx|089500|JHXFWO
16-01-2018 03:42:47 OTP|08915504xx|522722|ZSYFJZ
16-01-2018 03:42:48 OTP|08915504xx|321417|KSVDIQ
16-01-2018 03:42:52 OTP|08915504xx|281694|ISRRYV
16-01-2018 03:42:53 OTP|08915504xx|444326|UOAVCP
16-01-2018 03:43:36 OTP|08915504xx|178747|WXPJUZ
16-01-2018 03:43:38 OTP|08915504xx|616396|WNDZFZ
16-01-2018 03:44:38 OTP|08915504xx|429171|IJTAMF
16-01-2018 03:45:54 OTP|08915504xx|757069|ZPSXJM
16-01-2018 03:46:02 MYPOLICY|ทดสอบ|4dpjrwXUOtYKT0G6QwqSrA8Opx5odpdq1bpiqa0ss9w=|U3540d4cf2c592d3530f2f490601d4ad7|SUCCESS
16-01-2018 03:53:46 MYPOLICY|ทดสอบ|4dpjrwXUOtYKT0G6QwqSrA8Opx5odpdq1bpiqa0ss9w=|U3540d4cf2c592d3530f2f490601d4ad7|SUCCESS
16-01-2018 03:54:34 TAXCERT|4dpjrwXUOtYKT0G6QwqSrA8Opx5odpdq1bpiqa0ss9w=|swodsman.smo@gmail.com|FAIL:NO TAX-CER IN CURRENT YEAR
16-01-2018 03:58:53 OTP|08915504xx|081994|VJPTON
16-01-2018 03:59:40 TAXCERT|4dpjrwXUOtYKT0G6QwqSrA8Opx5odpdq1bpiqa0ss9w=|ss@sxm.com|FAIL:NO TAX-CER IN CURRENT YEAR
16-01-2018 04:01:17 TAXCERT|4dpjrwXUOtYKT0G6QwqSrA8Opx5odpdq1bpiqa0ss9w=|swodsman.smo@gmail.com|FAIL:NO TAX-CER IN CURRENT YEAR
16-01-2018 05:18:12 OTP|08915504xx|091264|LUUGCF
16-01-2018 05:30:59 OTP|08915504xx|913432|HAXIXR
16-01-2018 09:28:07 OTP|08915504xx|777034|MYWSFP
